/* XPM */
static char *a784399a871c4211bd51d2b9be5d4415[] = {
/* columns rows colors chars-per-pixel */
"256 256 78 1 ",
"  c #030402",
". c #080705",
"X c #070906",
"o c #080907",
"O c #060709",
"+ c #070909",
"@ c #0B0C0A",
"# c #100F0D",
"$ c #0E100D",
"% c #10110F",
"& c #0E0E10",
"* c #0F1110",
"= c #131512",
"- c #181715",
"; c #161815",
": c #181917",
"> c #161618",
", c #171918",
"< c #1B1D1A",
"1 c #201F1D",
"2 c #1F211E",
"3 c #20211F",
"4 c #1E1E20",
"5 c #1F2120",
"6 c #232522",
"7 c #282725",
"8 c #262825",
"9 c #282927",
"0 c #252628",
"q c #272928",
"w c #2B2D2A",
"e c #302F2D",
"r c #2F312E",
"t c #30312F",
"y c #2F2F31",
"u c #333532",
"i c #383735",
"p c #363835",
"a c #383A37",
"s c #373938",
"d c #3B3D3A",
"f c #403F3D",
"g c #3F413E",
"h c #40413F",
"j c #3F3F41",
"k c #3F4140",
"l c #434542",
"z c #484745",
"x c #474946",
"c c #484A47",
"v c #474749",
"b c #4B4D4A",
"n c #4F514E",
"m c #50524F",
"M c #4E4E50",
"N c #4F5150",
"B c #535552",
"V c #565855",
"C c #585A57",
"Z c #565658",
"A c #575958",
"S c #5B5D5A",
"D c #605F5D",
"F c #5F615D",
"G c #60625F",
"H c #5F6160",
"J c #636562",
"K c #666865",
"L c #686A67",
"P c #6B6D6A",
"I c #6E706D",
"U c #70726F",
"Y c #727471",
"T c #777976",
"R c #787A77",
"E c #797B78",
"W c #81837E",
"Q c #858784",
/* pixels */
" 2$2;6XXXX;26X==>O&..>>O.O .  O&%=$$  ;$%2;%;X X$ @%1 .. @7#@ .:#..@=#  .@-$-@ ##$$@oX$;$X;;2$XXX@<$=< ==@@:$%@$%$@%:$X@X@=@XXX @;22;=@%==X@=<;@X@$=$X   < X=@ ==OO>>& # >q&%-1=-o#-@#= @=##-# o. .-:X  X  < $XX= XX= ;@=@;;$==:=;;=:%6=@$X$;$%$@%;;2==;2X:=:X$=",
"@<b=:VCX X=SFuX5Dzy1ybbv7&   OOO  $w3Xo=gnn6g:@X =zcf   ##@i7=#.-#+@%=.##7zlf= =7<==X:gawgnVFg;6XnX;2J=X@@2%rBc;$X%X;@2%XX@@XXXX  X=22=$ X@X X@XXXX@@XXX  6XX 2JM>O+sy% @0MZuo-fbzw6dMf6ua7-:&  o  X   X @=J@luXr6XX @dFngBbVnVBFkr8X@$XX<rcFPPKVVVga2@ X X  bm=",
"X@X %JJkX  :Cx2<lMf4iMi<*O    OO@@o%X =62X@$ X   @dhi @+ 7D7<. #@   .. .#yd=.@=1gSawu=@X$;=$cCrX@$wr6 8$r;2$t8wt6@XXX$@    XX    X=26=X  @XX XX XXX    X  XC;@=b4O&O6&.O %7uyfi<elu7e6<wee< ..  XX     XX $gl;=@b=X;6rBVcgCbCbng;;@@X@ $=2rggxBJSVFg8X X   rJxXX",
" X@:;%CF2=@$gnt@ybMyyi0>@  O   O oX XX=:@@%@=X X% o.   .=wMd= $ .   @# . .-.# .@*$ <r2==$w;6Xw$<$X@;X;8FX=2c<ugk8$=;:X$$ XX  $::XX=62X X   XX=X    X   XX=8F< @gy>O&64O O qDz6..-7# 1i1#it<..o.o Xo@X   @X  XXa=br %=58bKCl6XXX@@X82%:gg2uFPFCVJVJJ8XX XX==$BgX ",
"XX@8c ;rcXX$6BB6O=udq#O#6@      $@$=XX@6@2;;= X   17.@ .@-w-f-$   . $@ .#.  o .#;$@@==@;lr6$$32%X@2X:9$VX= =2X;wg966g6%%XX   $pc8@XXX  XX=%$X X@  X@XXXX  Cr<X r++O&>=O@O@>iufu--@..@  :7-+       @==X X @ ==;p=FX;9g X  X=XXXXXX$<6VBr<knKFCPKPVbg=XXX@@2=ulm@=",
";g2cbbXcgX26$uCc@ O@  Oq6+ O  OO =gg2@XXX@Xk2X@X. *: =.   1i-t.+     .   .. @@1<pcb222Xrwrl2%@%X:XX:pCgb=X=X;$tX8t:2ug;$@@X===gFg=XX  XX2682XXX%=$@@XXXXX 8<:= 2>@&&0@@   >666>.-=*. .@ #. .. .@X  @X  XXX=  Xb8cr2@==X@@ @ X@:=6tgngxggnSJnnJCtr6=XX X;2rt;62@X",
"ga82<Jg6XX2g=r$  O O=<>qw&..   +X2lpXX=XX==gF;X@ #bf$  ..#<fB3=-. . O. .@  #-.uMbnFg%:882$XcCC=XX@X@rFg8cu@%X:$22tg$;XXX=;XXXXrg8@@=XX===$$XX@=22=@XXX  X <rd @X  OO>.=OO  .#$#=.   O ..#..+.          XXX 8=X=JFFF;rKU;26a8acJJxScncguxnVVncFFg2g8  X86gglC=2=;",
"2X XX8u2XXptg2 @O@.>zjqdSyOOO   X 8u$XX$X=X226X $ 7#  @.@-VBLMe. .o  . .O.  .$dzcVng2XX@;$;@l2XXXXX@XKVBVtp:2r62%%@$%28rug2@X2xl9=X@  @X@@XXXX%2<@XX@=XX@ @@: : &&OO&##O.OO+-@@@*-#  @..@oo. ..   XXXXX $XXB X@BbnFJFKcu2gFJnBnnnu;;t8gxnVBnggBg==XX=@cJcnS8cXX;",
":6  X 62X@nB8XXX #O6jwwji%O O  OX  X$@:;%;cn=@X .7#% . #<wZ971##.@ +%@ .. .. =imVnnVx2X@rg8;8;@@@ @ =gB@8FJVgxg9g%t2rcxBg8=;XrSk;@@@XX$@X X XX2;$ @ $  @ $@;2XX@40OO+*&>  .O-# =# @#  ... @    .XXXX;= 2< =bX@XwnlFccCFCVJFCBt@XX@XXX;8rrgBBg;;:@XXX@rgtCa;b6;;$",
" %;  == =:Bt$@      +   & OOO+O  XXX$@<;%2gVr$X@ mw=.#%@-17@%##@ o.## .@@@#.#7el8xCVnku2;=$$<$;X;X: XXX<@2gagtgxb6wugggb6<$;$gn8%@$=%$XX@@=X=6pp=@ra8X   $:6=X;2y0 &>4qs.OOO@%#=#@@##@..  .  .   =2=X@2m;@ aXX=X6gnbgCnHcl6XXX XXXX@=@X@XXXX$%::%X X$8;$X;X8gctX",
"=VxX   $X8g%X$ X O#OO..&O.=O      @X@@;=@rrnuX X%f  @   @=@.@.@ +.....7f @##iSSDVCFVnSVxg6wxVSFrgaa@ $XX @=XX<682gg;@2gr62%%%tp;;682;;<8;;==6ggr<XdSd=@  Xr6 Xoby4 OO>6i=O.O #%@@#@o#&.     .. .=ul8XX6F2$XFl  X@2g8Bnbnlg; X==$%:8ag6=2$$$XX$XX@X@XXXX$=$$BBFg;",
"X2X oX@ %kuXo $;>OO O<>@@>6$ O@@  X@@X==Xp2ww$XXib=@. @=.=@.@@. . .-# 6i#-=.yCBlCcnVBCCxxgmJSnnrnFr$X Xr;XX<%2%22cg2@X6<:26wr6%X;226uu98u9;;;6= 2XwVg$  @=@==X=gjy<&O#>-<  . #% .%#.#=@..#@ .  7=;22$X:a2r8cb;XX X@ XX @$=@@6gggVgtlSnggg2%X=6%$XXX%$2;;8w2x9Cx$",
"$$@@  @ $cg=22px0OO&7MZZidlq+  .X X=;X=;=g<$;$X@Cf-#    #%# .%@.#.6de.6l#<7-1BPDnnVFVCSBngxVSbnpnpub2X@;Vggru2<$X X;8<<;@2rr8;XX;:$XX$2gla66@@X@w=X$X  @X 8=XX;uOOO  @>>y  ++%%o.--@=-#@.#@ ...w2XX@    tkd8Bn=X5XX@XXXX X2gCKKJnkgnKJnnBg8$@$XXX$:9wccxcn6;2ng=",
"$$6$ X @@uS8:<$=& ...-6q>>yw*OO>= X<6$22;gg<XXXpm-.###. %.@.%-@..#uzi 6z1uz7=dJLFxxBBcBSFGGnu;62@=8r<6$2bSKFVng%%XX@88<X$26$$$$2$XXX%%;;;@XX  X@ 2@X X  XX8:X@lX&O*&O.&1j@O@. ..$:>##==#@.. @#@-@ @X X@@d78<nl =c X=2=r22rlFKSBBxxxFPJVb98rw<@X%X6nJSPFSn6$X$$;X",
"=;JVX XXX2Kc86$@=.O.&=&O@.>>+  :<XX:2$26$xnwX@2c@@#  .= ..%>w#@ #7bMf@:e1lZe<exb8$@6r69gbcblg9u6=2CB<$$8xSxc<;8<$XX@=@=@X=829826:$$:;@%22@XX@XXX@8;@XXX   x< :rXO&4&#O&wd&.O   X@##@.###@.  @#@@2=62X   <XX  +  X 6UbBnBcnBVBBCFFr;6tgr;8:;88;<rncxckVnB6@%$X2rX",
"rgBBrX XX@bb2X$@&%.O&-w4=.&#  @6<X @;@22;cg; @==#@ #= .#.#=7u @.%3t7q -7@td<@@  XXXXX$;668cSmBLn8gla:X2g;nSg6;g$@X@$@X;XXXtgFcgu6;2u9%XXr62$=@;%@=X=XXXXX=t@@2=X <w+. O17@O@  X$. @. @=%..#. #@@r;rg6@ X@XX@  = @X2nr262agnncnSFc82966ww<;;tr<gVbcnbu8;<X<;;6Jx;",
"tpFBg= XXX66=X;@9p;X$gLb988%XXX62XX@$=;<$ur$XX$X$$+o@XX$$:@:uX;X$X@XXX@@===@ X@ X XXX2gBSFJSVBLVx2@28%6n@ung<6%X$2$<<XXX$X:cVx9%22662;@$rtw8889<X2 X@@ @$8g=$6XXX2g<X@X=26@X@XX$-#.@*:-*... .@.786@2t$ @>&,&8o$X692cg=;rutgpupxggwwpr8unxu883;rBVgpCSbw<6rF6rVnr",
"urSCF$@ X =6p6$$rBr@X9Bbaug2X X;;XX<2$2;$69;$X9%=#. @$$%$;X@<$$$@X@X XX@X=69:X XXX$;2tlFSSVVVVJVC2@@x;:wXX;gVVurgg866%XX$$8gr;;:ugr886;X2p8;;ww$XX===X=XXxn:$%XX$XutXXX=gg;=;==@1qw13<..+..  .@1tg:X@X+oO0&5c= XgSBc9  XXX@XX@22$X$<<6lJBu:$@$8gggnBmGGgncFbgxxB",
"2;gJFu@ XX;gFn6%6cp$@8nxu8pu;X  $XX88@u<$;6<$;n2=$ o=;==X$@X=:@XXX$<=@XX@@8xc8;6$%rxxggknVVSnnVBVp2rg8$XXXX2bFBFFKVgt9:=X:tr;$6uxg;@8t2XX2<82w:@@ @==X=X g8=92%X@$6<XX :8a8t8r6X1dzdhu#.. @#. ..X2=X  +  &>=8a=X=xB2$ X X X$2tccprpr22pxu<$$X@=$$8cnSCSxVSJKp;3g",
"oXaJcFXXXX<cBSg=6pr;X2ggartgg2X XXX33@g6$<;@@gJ8$@o%2<$$%:$XXXXX@XX26=  X @rxt28=2gFSg828rtggVCFVVcP9Vr@3X$;r2gLnFn3;2=$$8tr9gxgrw<;2:;6@26ggu;@X@ X8;@@X6==u$@XX%=XXX X$trggxg$#7flzi=.. @...@.:;$@   ++ &+sa;r9t8  X=r92:=8aclxxnl8;$<8wrtr2@X$6pxJVbVFVSKBu;$",
"r;BVBc%XXX@ucCk6;ww;=;6nbbggBl2XXXX===k<;2$X;Vb:@@@=2=@$<rgr9XXX$$X==XX$@X X62$@$;gCVg98662rgFFJFSSLgPJtg;8pguxSFVg;<8<;9pppcVg:<228rrwrrgtmBn9$ X@@B8=@@@=;r @X@ @=XXXX2t:wgFn8#=ilt6# .   %7y7t=++   &+XtuV8glJt28w<=xBa2@<wgpgplxpwrpgBBnnt28gkw8gBFFSnFFPFgw",
"BpCVB2;X@@XrFCgtX89<g9=kbFbgcCl: XX@$6g$<;XXtn2$ooXXX X=;gSJS=$@%6:;%X=2@@XX=;%@X;gFGSmVxBVBVKSVVJnxxSCVmgcSSPInBg<%268txgpgBx6XX;69gcxlgguSCc8@XXX6c8=X2;r;: =XXX@XX X%tk2;9cxr-=if1#....o1abBf:X  OO O  SAx<VbCggCBd<ta92%rgBBbxbBxlxVxVBxbggcxr:2<bGnVBFVFSBG",
"VgnCg<6;@@X;ccrw$9g9ggX%rbVlaBSwX XXXr6X;$X$ltXXXXXX  =9ggCSSw=%;u6<;@<6X@@XX;2%@:gFFFSFnFLBCKVnBPBxgBbJSgnLFnggug2;8pxggt8rp2XX$$<ucLFttugnx8@XX@ g62X=gca=X ==X2= XXX<lFu;;<2:@@1<.  . @=fSmlu;$@  +OOXXdnn8rKBxbnlgq;XX@X6wuggxnngppupgpugcmx<@$6tgxnGSBVGJVG",
"VgCnprrw2@XX:rar$2cu2g2X 6nb6uB6X  XXp;@$XX%c=XX@$@@@=2gKVCCKB;@<g;XXX;<%XX$@;2%@=rprggxngu;gVbgnGFbcnBnlcVSgu=$;g2=tVFu62@XXX X$2xJFVnp9xng2XXX X$xu2=6BBX =rat2$=22XX%cFt$<;:<.@.  @. ##=zDi1= X@  &OOX$$bnxmbgrugar2  @@XXXXX$8lnxggw8;$$2xnw;8;;g;$uxGxPKKSV",
"VSBgkB<68$XX=uc8<6bn6;w2X@2t6=8<X   $;;=$@;;2XX6;8;$$pxxJnJFbgX$;2;;@X$$@<2r8<w689;XXX$28%$=$r<@wggFJBgutBVBg;;=3grr8ru<XXXXXXX$plVmpw6<rBFg;X$XX@:pg2=gpt X$SbmdX=26XX:tu8$X@@ .. .   . $wzi1@ X :=O>& *O0sFSmhrt8;@X;2ww8%XXXXXX;rr9w98uurgBBxkcg2XX$ 8uxFKSJV",
"UVxrcCtX%XX%8cc8;;68%@;:@X $@X= X   @==X@<g@X@X8rr;8rBnBnxngrg;@=;X@@X6r2w8tt6uggt;$$$%$$%$@XX@=XX$ggpgpnbgFxg822886@XXX@XXXX;9pgggu2;;$gBSn9XX@X$@uut;lX@ =aKxx2X  @ %r;=$XXXXX   . ..@..=y6<#.X@6t*&+&O+Mypnbgxa:X@<gxSngp6$@XXXXXX<8;gnJSBFJVVVct;@@$X=gbVSPS",
"grngBnCuX X@288$XXXX@XX$$  X  @     X@X Xgr@XXX=2wuVVFuxbnxgwg<XX$;2=X6g3tgw82wxVg969pgr@=X6g8pgXXXXXX8rr62cunbbp;;@XX$69ttttgppw8;$$=;8umcw$XX;%a;tagg6X@XXcJ8< $X o@6l:%@$oX   ..   .   .-@#@%893a,@ O&yJu=wppg2XXubVBSncngw8r<XXXX$$XwggggxnxgnJnggrg@X;6gVKg",
"$X6gctct XX     X@XX$XX@ XX@  XX     X  @g$XXX@ $8aBVBwnSSBJcx8XX;6g8X6g6ggr322gCVbxggxg8u6bJgCCgg%$;@XXXX222gBBKgu8ruugcckgt8%XX$;;2<6gbVg;=;29w8=2g8r@@X==ta=X @XX@=68=@X@XX X  .  ... .  .7uit8==+OO*&ZSk@=3;$%8uSBCVnkbSnggBc8@@XX$ww;;;$=36gxFVCCgB6XXX8gx<",
"X X;8=2< XX X   X$82%;:$XXXXXX   X  XXX ;;XX@$X<86rpBSgVFJSImg9X$%<gr@8c8xbprw<28ukbgtt2bc8BmaCBFPgr8rrp$;r$86uwSnFnBblgg8:===;:8rglxgpcFb62tw668X$;r2@X= tk$XXXX@ XX$<$;$XX X X.       1i9-@iBJgrrXXXO5>PHMrg2X @gnKgggggmSxgxFVng9==9xp8ug<X$;ggBBCn6w2=XX@$2@",
" = X@X=6@@  XX  X:gnggxr=X  XXXX   XXXX @@XXX@2xggxgGGnVFGSnugrX@XX6<X2guccggg9%X%<66;$XbhuFmxSBBVCKccBurtp%8:88xbVxlxnxg8<:6wgxmluur22w8r2<6:;=X%@gr<= =8dr   @@@X@ %wr:;$XX   .  .##@.eBni7fMSpgc;$X+5>kZNnK:@XX;9g89twgmmxgbSnCFCg829rubBggugcVVcVPcuga8=X $$",
"@@X XX@@2:X  XX @2cCbBVgXXX  X @     XXXX$XX@$lVSCVnSSVSFFFu2pg<@$X$@X8gnSnmVBcr96$@XXXXggbJmeicFBVVnkn$ugg66<ggnxuw2rggggt96268r;XXXXXX@rp6$%2;X;%C8 XX2g2 X$$2X@@@X89tXXXX.ooo...-wld739<7ica9=;8@@X+&&O00tg@==$@@$$tCnBVnggcVBbnCn6X@;6gnSVbg8u9$6nVgCFg%XX%;",
"@ @=;X@@;<;=@==XX$298rt8=@XX==      XX  @X2XXpxBFFVFVSVSSVGt6gVg63XX$6nVSFxmncFnxp%@$X$;u5udx< 18gJVVpc8gxBrr8B682X$XX;<222@XXXXXX;8rww;8gxgw288%%xgX@@rgwo.  <22= X9c:XXX@@@o   @.%eml<@# o%-XXXoooX X & > o:2XX@@$$=6gBxgt9uxmVclVStXXXX:gmg6:$@X$=:86xFg$XX;;",
"2**5>@ $&o=@+wg; X X$@$2wc2$$@X@X       .#-@.6hmCCDBVFFVCSV922gczu= %izzDzhzBDDCCzfiwffi<lw71%.@-.fmmfB7zzmydd7#.  .    .   .. @@;rlBBxagmlFu22=8gr@X2gr2X X%=xa8 =:uw@  ..... . X@$=;:@   X X 2:$Xo  .      @@XX@X@=6$%rSglgtlmgllNss4&& O=04O1y&O#O#=jBzZi%@<=",
"s+wt$o@XXoX +9gr2;XX@XX<gbt:X@XX     .  .#-+@emBJCzhnBVBFPVwX@8xlw-#=enBBnlffbCDBMSmfMMbzzw>.%-@.#-1bzbizeCaw6        ..   .  @<rrgnKFBckFbg8;:rl8X$8guXXX  @;bt927%-= .  .. ..   X XXX XX  XX =$  %@.       XXX@X=;68:;$r6xngcSmbkk==<4iii==yyvSu>=>4&7vZDveyzl",
"A=r5XXX  XX X%6gau<$8gguuwggp8:X +o O$  #.@ #dSBbCa=@9xaxJCB8$$;-##.#dMfbbzbBBzlzzZmbbmCf1==.=-6%fweBbbB7fJb&  $ @@       ..  @1rgbBBcgglalrppp2q Xuba=X @XX;;2gdzu$..      .   X XX  $2X=@=<@X@X@X+   +X  XX XXXX<6r2;$XX 6822axtwu@O&&wfMi0iijMy404=&uvBDMzVDD",
"u<,XooX=;oX$XXXrag8;pCng6$gVFg:X @. ==  . .  wMMewef9%@2uBBKg;XXo:- >zChlzzbDSMVBfzmBzmSBu#  ..izBzmDMCMww6< .. #--@ .@. .  . .%<gVblmSCFgg2=;8$ oama= =@X8==;2cSJi@. .            X@XX =rugbww82u8=X*  X     XXX ;:22=Xo    XX@<>6y&-yjqqjvi00sjMMvw-4zjyzu1fuz",
"=6XXXXX2q==<;XX$:;:26889t8gVJg=@...$-# .  #. .edt28ggrX=rbVJn$$;lMu##7izzzbbbi7imeimDbmDzzt11e1umCbi7%w1Z%.@#w...##@o#==@@....@-ggu:%26<86=X@ X Xunt@X X=g@= a2SJD3   .  .    .o@ult:XX$rcBBCgcbxCb2X@          X X@=6;@ XX  X   O>6%0vZy>-<&  %0vZv6>qjSbZv1flf",
"<< X X==<22<@X@XXX$%$$$=:8gbCa@X O#:-. o. @@  @-u::llg;2gBFSx$X@zBd-&-<<#=1ui1@=1#-zKBDJDzffwlbzfDC1@ @.7#.. #.  ...o@##.@@.  @1r6$ XXXX   =X@26:86@   X6r==6=arewo . .      .@#walnc8@$gCFnnkBKFVVu<$ X        X  o@rrt;;= X   O  O%wjbbj6&OO.  >4y4-7vBDBZvBD1",
";@ X ;w2=22XXXXXX@@XXX=$$<2gcrX .$9e# .o@.  @.  ex2;$acunSBg6$XX#16<1e6 .  .#@.@...zJDBmDMZPl71=#61 @=   @.   # . O oo.. .... .-$XXXX    Xgn2=2=XX  @  @=;Xtb@==   +..       ..@;6gFJu=<gBFCBVBKJlmgbu$  X.  XX X   X2tnbbu$=    OO  &iCMb7  OO OOOyw>7bMZZDPCf.",
"$<a2=$<<r6X ==XXXX@$@=tbBp2kl6@@.<lf# @. @.    @;aX;X=a98bnrX@X@. #<@#- .    #6e@@.fBme-emCJd-    .. = *  #    @.  .++.... .@   XXXX X X@@ga2; X $  X XXX 2Bg8 X.  .     ..   .  @=$<=XX<aBSCJxnFcCu8==$ X.  XX X   XX6nCJl=;@X O O..O#6ui1&>@ .O+O>0w0>DBPmDa #",
"=@gg32gbn<X;p8$$%$$$X:gFCu2ww$ X*a6-@. .. .... #69u8=2g8;ub;X@X    .#   . #@ .uBe71-zvb<=-el1#..   . @ .. + @=@.  +oo@o.@#@ .  #$XX2= X  $2<@@$ XX @@X    u2$@   @      .    ..    X XX  =tuw<:xFla62%r%$X@XX=XX  X XX@mFJxlba8=. @  .. *###@.  *&O O=@O>-6uz<.@",
"@amBFpbSJGBg8=$$pp9;:gFFVt;=;=%=uz6#    ..*$.  +ktrgc2==X;u@X=XX .   .##-y6$. @66- .-<91  =dzi7#.-    o+-##c<zDi-#..@@  .o.@@ .#82:dl;  X XX  $@9X=oXXX $ XX.    + .   +  .+     X    XX  =X@@ ====ur6Bnxp$B6xXX@X  XX@6FFllr2@X  . ..          O+&O  OO.OO+>  @",
"X=WBgrmJPSVFKnxnnBg8wBLCVt22;X$2ee@  ..@@-=O. o#$r2g;2 XX X @@X@     <6%-1u7  $#.  ...@@@# %fizmw..#1 =.1.=-wezB71---=#=%..@.   86;gV6 XX  X@$$@;$;<c8X= X X     .    .-1#....+@ ;uu2262$X  X@ X@XX2@X69ncgFVt;g$$XX  X=qggaX@X==+.. . @ .       O     OO  O. .@",
"XuFVdlBKVSmbVFVxgu62uBFb22ug2$;21=  ..  #e<   @ XXX;X@=X$XX XXXX.   .wu-%=+.#.  @#.. .@#%  @@#bDCb= 1l  =.- @1= :=@...#-=  .  . $:;amwXX   X;6<@X==2B;8 XX @X  ..@  ...@#@.  =<=@=22<8tu6=@X=@ =XXu;@@@;;=BBVXpJ8= X@XX @uVaXoXX .@$#@   o.     OO  O O  O .  @ ",
";dGVVCJFSLGnnSSBm9$2gSng6gBa=3u8=  .. ..-7=+    @   X@2X X=  X@ +  ..6w- =#.@@@o .#@o   #-.  .>VDMz-6@ #  .#- -@-<-@ .=--o.@..o X;waaw;X X  X=2622;=Xn<6 X   @   .%@@$  .=1<-6ee@@6xFJBlp8tlbe3dVgx=@:XX rCPS6=nBlw  X   6bw$@@ .<-%#@.   .  .. OOOOO    O    . ",
"2xInFFnGmVSGJVnnn9=3gBkwbVBt@$:@# %#  <ef< .@  . =@ $@@==XX XX@@. @  .--#.@.@9w .@yzl3..#1$.@. zVd1=o7c -. .<.@.%%#-wi1 #.+.    X=w8=<2$      :drp<Xr6re  $X   .*7e%.... oecf7=@X  ==$X =@2nFd6aBBggcCgg86gJUKt@2gn6@; X  :X$ $X-7<.. .      .@.  O  .  OO . . +",
"dVdIlmVupVPJSnp68$$wxmngBmnmd:..##y1  7zS<  .   X X@l26tl6XX=XX@ ..   .# -# o@X@. 1fzi#.# =w@ #@#-=6C7ce1iCm%mBn7fnf6#  .#o  .oX X2= X;: X XX @qu=<6r@<X:  @  <cCZb<.  .# .#@   X X   @=XX$ri:o=gFnVcggn;6FgKFlucnnq$=  X.  @ oX@1# . . .  .@.@#OO*O + O  O@.@ -",
";agwg$$@$=8xSVggp;2nLKSBmlau6X @ @fe#.uC7  .   .  X;tlnx;;= X @X .  ..  + .#  @=@.@efV6.<6#1i@   %O.-#dIKDfyzzcz>-*@.@*-wu6    X X22=@=;XX  XXX@<:2288=+ X   =CmBli@.     O.  .@X  X X   X X+  @=wxBPLnVkxUncKgrcbSSp<:  @  X @+ui= .       @@#=><j> O +  +@.=.i",
"ar8@X $=8$6gxcbaznt+#ei7dzd6#    .>=+ef3  . . .  5t9qvMy%i#=..  X XX  = X @X =ubw#oO1f7%$.=l7@   X@$::@6Vlclunn;uXX @:=;28al8XXX @:=$@@=XXX XXX@6ad7=o    @ .=67-1   @ @-= . @1#-@  ..   .  .+. X@X8FKFBF6IbCSkFlbMdz##    .o+o.=@X  XX XX$$@@X:NS7 =@%X@ X $$a;",
"@XX@@$X  X:@6nbKe# ..@#@><1*.    # :1$#.@ #  +  $@ySM1%q-- .+ -dg2u6XX @X =gg2=2e<..#==  -.@*. $. +o=$X2Jr=$XX===2$ @X X@;wg8X@X=X X@@5abBb2X   @X.:<. %   @..o.    . @.  =eMuii11%   .        oX XX2bFnu=<VnKTJt-.<dDe+.     ..XXX   X@gFCw<:6xZk=. p2$X% X6S<X",
"XXXX @$=5r2<=gFCzi-.-<7de971@   . =t6   @ @  @  =*==>&@*>>-.-%ew2aFtXX   X6cFbu8lD7 .=-=.==-zl=    X  X$=X  X  :X@X@ X@XXX@;;$@  @@@ @ugr98@XXX @o.%-#. @  .. # 7.. -%udDio-iufM1<-#..  o@.. .*76X X XX =@abgnt:  6zz6e7 .   ...X@  @@XX 2ugp;;rVq,=g9rX  2@@ 6X",
"XX@=X     $;g8B5o#1- .#      .+.  iw.. ..   @ @+ O  =<O %.  #%BYFPn8= X @2ubg: =1#-elBVe#=fi<.           @@ X  XX X%X@@ $X XXXX X@   2BcnnBw=XXX +@ .@.  o> @-M6  .iBd1yifefizzKi:  .  @oo..  @3cC6=X =X =X X=@X-1<1..16   .....Xo    2nIg2p8;gV2*<S8tl;=X  @ = ",
";$X X@==X= ==tX@O:=.@  &.@. .@.  7f# @ . .+     O+. OO.@@  ##=71gc=X@ @  6gxBnu=<3du7bLPi#w6. .    X  X $.      X@@$=<X= @@$@     X$ XacbCC6XXXX    .  .#-zSz >= #.7uw#-7bVf  .=u- ..  +.+.    @ nFn2 XX=X XX; 6@ e =* #..      XX X$X6KIu$8pgxp$<BBbBb2  X$ = X",
"X   X XX2=X =;2;@ .@  .  .  ..  7u6@  @ #7z<.+ . O&@+.  ..   7y<@;$ X@X $ @rnl2X.iu 1zfv=Oo..       X X    X  X.X@6%X%X%X=@=@X XX  @@:r688t<=@XX@. .$  + #iBi## =:<=@-1-@7SM6@. +$+...   . ..  .X@lc8688B<XX@$X -. @#t #%#      X X8u26gVx2@;<6pbgFJgbB:<@+ 2   ",
"XXX@X X@XXX@%@:X=-. .@   .  .  -d6 .  =  -i%    @  &>@O@  o-#-wMCgu;6rX   XXXXX   ..  .@@#  @. @X=  X    X@XX$@ $@9:XX=:;2X@%@XX @$X@2ugbnPKc= X     . .=  $   #=#%.O#ww :Mbu.    .   ..    .  . Xxa2cSJa=F;X2=< 1 @$=- #@..   . X8lt;2xCcr8gg2:mFcnr=uaa= <X = ",
"X         XX;8X671=@  . @=. # $fb9..<# #.o. . . OOO..&> @  .oo..;ug=2Bg@X  X  @    @@ @  . @  .1=6@XX      8BBw+X$%=;@rB8q==;@@$o @=;=@;6rbCBu=  ....  .  @ . $=1-#-1. #. .@1- @o  ..    .      X   XXX@66;8uc2X-%@<. #@  @.   .X<gBg$@;cBVr@@X=agCFCa=XXX+ .X  ",
"  XX    X   =8dJJzfd1#6fBz7 #O1l1# . .@..@...      O#14@ -<.%-*.@<6=6ar;:X     X.      .    @ #DrXX  @@XX =rCgc@@<rnp2:wBgrut83@X=X @2:$rCgnnrXX   -  . @% @.# . o 1... o  .##$.@%#  @##.   ...     X@X:%; lCVJa7lz1o#      $+ #<2@ruXX X=XXX XXXxFFSFFu2$  @  X",
"X   @@X XXX XX:dz<-izlzBKBwo <ue#  .@##.....       .O>>..#79dzSSFxt5rgcCFg<X XX  .. .. @@  @ =Bnt$ X:Xrx  8@ltc=6tgg86:8gurugt2XX=$@$@;8uCBcr=XX*   + *@@ % +7-# @#6+         @##%@  @## ....  .    X$8CF;XCxcFSDLM1 o@ .  .  .wSl=XXX$=;%  XX==6cFFncSFmt=X   X",
" X= X  X  X =2wge= @.@qbbi*.#ft.. .@.#@ .          OOOO . *izmDBxbxggbcBmba<X@@Xo   .@ .. -@@bM. X X=m: X 8Xkgb2;XX@tJg8== X2=oXX  X$XX6gxcu@  X .@ -#izB- @# ..1y#< # @...   .#@@.  .@. ...   . oX <ugBkp6 =dCmLz#...*     .-wlg6=X2gw$ @$=@X@;cSFJFCFBu=  X@@ ",
"X@= <  XX@X @2= . ....@.==  7e#.@.@O.@@   .             = -imMBbcnlw8lggBBd= X8a6@.  @. .%#@ii.<@X8:$g@@X@;$;==2=XXX2a:X XX=86:@@XXX@X@$rgg6@XX=.6-.-uzVe7 ###1%fBV<- =$#@  .@.... ...   .     .   X$X;BCn@X = xfy-=@  =+ .@1znd;@=  2:o@%;$@;gbVKJVVCSn8$==X@=X",
"  X 2XXXXX@:8t:  .@  @=<-@.-i7#=@o@..$#.        O   .O O..$%6-1i<=@=:6X      =3w    @# .zi6u3 $<$$8ggnp 62X=  X:XX@XXXX@ XX;232o@@@XXX@X$<:=%XX;6nVBff7e@-7fKCe.-6l<z77+.. .... .  .#. ..       XooXX @blr==  X=7i7$## @1oo@:da-$@=9r82X6gVg;=8gbVVnCPFk;2cct=@X",
"<:=X=XXXX =;;=X .  @<-  . 1eu=+ ..@@...         O        O. .  #    XX @X     XX @ $li=wmM< $7hJx8gB%X  r6@@=%2%%@ X@ XX=XXX@8ha;X X$@@XXXXX:@@:ylDSu@  yJDzLZb7--7e6#  @@@...  ..   ....        .   $  gauF=X   19@...yd<=@ .. XX%t8=rupBPc66ua6%=<ag8XX 662@XX",
"Fd:@;=@ @@22X  @&<--# .-@<fl6.+##..+          O .@  OO      +    X$      XXX     @ @u7 1i11<ibdmatPt222 @2a= X=X=%2=;@XX@@XX-7ii2X =;;;@$@XX2=62V611# .o%SbYm1fDf1<-6<##1-=@.          .        @   XX XX<glg@XX@.o#17efz6-=.  XX@@9a688bcSbgg6 @ XXXXX@=X8kga=2",
"Pg=XX@XX@2drX XXid6...%<de. .. #.     .@.. .  ..O*O .#OO= ..  . X   @X        o.@ -1#.-i11@=ulBVbcBbKFnXX2b6 222$2xt62$@@2=X**&&XXX=X$%$XXX@@Xr6i .#  #O-d%f#wwfzuwe1u1-7<@.+#.  ...  .           X  X   X6uB6XX   :eMPBw# .o$X  X@6ggglgalrXXX XXXXXX X:6aFgl2g",
"BgXX @@X6r9$ @ X2;@XX2ra2$XX  XX ..  .. -#### .@Oj +@*0<yu1q&&O  .. . .#=  $  @.=<i-@.fBl7#wmmmDKvjqyi0>&&10&qfb<jnd%<4>O70>->>O. =1<#-y6>#..@w7=X@ X@XX$:$98Fc;$$@<<@<;$$$$$;;@XXX=@XXX  XX XXX  X    .# @=B-..X X 2xbBu@@XX@X$XX;96<uBBu2t8X$XXXXXX  ==2FFnCFC",
"8XX Xw@$g8X@X$X;==@=tg2 @ XXX XX   ...#=@-7i7. . =  :666NvAAz@O41=.   @#-$..  .-<dVw#@dBbeibf7wiZu@O=a1>i. 6.y=ivu>.@4<.>*=64O*6-@.###6ddi6#=.1e;@+X@  22@X$=rw;<;ww62;<XX@@$;;$XX;82$XX=X X @XX  o    .  @-d-@@6X   ::we2=@X=;;@=22:8pgxnggr;22$@@X@$ @X=cgxnJF",
"x @=2g@XX:=2;6;;$%2t8$ X  X@X      o. @<wfcLKz=.. + >.O=4=izv&yCl7@@:1-#.#  .==-efze>#7bBeyd7wVDDf&>>u#1zOO.&# OO&<OOOO=&#.%-#6i-##%=#=1BGz77@.>Xo X@ ;b%$8;$<6688u6$@XXXX$$XX$<2=;;X X%===@X@X%@@.. .  .+  #&%-t@@X   +=;@XX@6;X:rr68pgxJngguw<%$X X$:96@@$2gcp",
"8XXu;@ =8p8u%XX28ur$ XX XX@XXXX   .o   =VSlbCDw%O O O OO .&4>#1de-  <7-    o+.1dzy##.#6BDi616ab1>O-1>%O4O.O. %@OO   =&.OO=@ .>yiw1=@. ..eblwe-#. =X:@  XX;bw;$8g<ugbg2;X@@$$@X$<2===  %<rua6=$Xt=%  ...   .. @##= X  X   X XX $$=6pgr6:%uBxpgBx2$@@$;:6rut=8X986",
"XX=V6XX=28$868rtg;XX@XXX=@X   X   .   .#DYbzzKd1@  O.OO .&.+ .OO   .#$... +@.1ue-<%1171ew<$1lDz%.>i& O-  *O@ @OO.&&&%=O&->#>->67i7-.   .%1wui7<  @=6%$%XX@r2XX;c@;2xnllr8<;6pr622;==;262cFJx6::k7<.   @ . ..  @   X  XXX    XX@$XgJSg6;$rcBkgBn2$@$22$XXgFVFrg<X",
"@;6n53XXX26plc6X@X@$==:22=X   X  .O. @##MLDZCDi%& +OO@      O@$#.@.@.  . .-=&97 @$%w71%1>- #iiy<< O.OO11q + &@O#.==61w-#>>1yu064-==*@..@=.<iu11@@ X;XX@X=@$XX@$8wXX$8xnFxgrrxxpp8= X6kg9gFJCgr6tdu=#  . # @.. .@X@==X  X =@XX==;;gSLCbgptxJKVng=;6tg8@XXXpVcgng@",
" @22X@ =@%aVFp25828gxptg2=XX  X .#=<<<%#lzzBDCi1  O+   .OO. O &&=@.     ..<w<. .. <bz1  .@  ..  >w1O<zbyb4.> &.>O&%>>>>>=>1000q7@@.o@#-1%.-71%1=X =28<;6;;;2w2$X2XXXX228glg6rr88XX @gJFurnnng98;ee-=@ .   @#= . $;<6r6;2=t62;==%=2gFnpgn9wgVCl8;9xFPBt8@X2c62;%X",
"$@X@@X=@$6BBnganBVVBVVg:@  XXXX@-<7df7-@@.-if7-.&& O+ .  O   O.   .   #<-6- %7-  =fSb7# .%@...%.qiyeZMvMi0>>#@su>#=&#.%O-O .#O>7@..#=-1qqii1=@<@XX=@gg6g=%rnS3@@;wrw;X;X;rr<28;@====uCVrgClg828$.-@=# @  . ....%wt2uVSnngnggtX@XXX<gggggr2;8t2$8BVVFVng@=X:$=@ @",
"@X2%=ra;@2nFlcmbccVFBg2XX  XXX==ww71y7@ .  ..    %O<u &=614 O .O . ..-ffi-.#67-@.7bCbu:#%-=#.#ed6iiMPvuMy6>>=dZMi=>O +O. &>&O@O&@%#--1dfzVf%@# #  X==8ag8rgg28X;;bFn8X$;28r;$<;$;8r:=bnxgrtg9;$%@ .#.  .  @ .# #w$26lBcbg6tVl;2w8XXXX@$6au8=$;rxVVVnBng$XX @;2XX",
"X;rnggl=X2nbrunFCVFKb2XXX X==@;297-##. .    .    ..>j=1wvMz0#.O    .%eZmf7-# @-.-fBl7:#..==7udefyuDDZHzb61>46vMsi67OOOO.@0diy1#O#6qw--edlu1-#@#%XX rttc=2w<6<$rgtgVn2;628<<;;;2rtnc6$txp2=%:%@XX @:- ..      @  X =@w6r58@8xluBmr@X  X @2rr2=2xKFSFSSBg;XX X2a;X",
"8gra622X;2u8=uBJVFCl8=XX @@X@=9ge3@...oo  .    . OO.6>7yyDZMeyy6-..6efmaei6.  .1wfd<..@. ..7fBwlfzZvyMjyMjiwwue=><>O. O .>yujl7>@1eu-..O1=.##<7.@XXFrb2;X;X;66FPFwrp9;<gw;$@<rrugnlrwtk9%XX@$=$X #<77w-  @ #=w=@ XX @$822@tlclKl: XX XX@=6q8rgVJSbggnnp;=  X=a5;",
"u8@ X@ :r;=XXtBFVVg;@@XX$8r26at2<:-#o@@  .        O .0e11mMZjbBzw%3MCMbiiw= @#<llw# .O@$.#@-1y<1fMy4&0e>j611>&&$ #O.& . &O@-ilq>%#=-#o%-16-wuil#$@Xn92@=XXX@$rxKr=X@<r2;62;@;rw2t622gugt$XXX%2;X@.@iZCe# # -1u-.X@ XXrr6@;abcgnu@ XX X @;rugVJCcBgggbng:=XX@X22r",
"2X  =XXu8=X  <uxng2XXXX=;uggBFpX 9ly@ . .   o.    O@Obl&1awwwsZbe-wVSBBmeo @@1di1.  =--17uw1#<iujz04.&4=y1>15@&&O&O@<O.O@.OO>1@ . .###<elztnmit;X@@68g9r$X;8;g;u8;@;;rx6;;6:$@X;;@=%6wgBp8;XX;6:@. uBKbw.@..-1* XXX@;g6%rggg6;$$o@;=@@XX=8ugbngrgknnBSg9$%X%XXrr",
"=X=@XXr:=  XX@$286=XXXXX$9trggt2#fSf=     #=@ .%$  @>Mb&.&.O&>yq-#7ewyww=..+=w7@.-6weifzMDDl16Vzv6ui-4jiayq>,=$ >@O@> O @>1&O#&>=..%===-lneia<<$X $:6KbJ22;gun36r6;<;;86$2r;X@@$X@;@=8ubbt;X $6t<=.-ebCi#.. .=##$@6@;2<6bc;%$% oX:tauq;XX=;28r2;<8uugVgp%8X@ X8=",
"X@$ X6a=X   XX   X$X XXX;pt;@@;81ii1@   ..=-@ @3>O @wwq&OOO.O.O   =#.. .#e1.<<.#7dbfuweeiBDBw7y7i&yfusDZ46=. *@XOO.&#   1ij61yiju61%%7wewa1:<%;o@@X;82Fnnr;<8gr9$gu<88;X$23$X;;@X=@XX;;28;=$X@6p7-@.%7Mq=@1%%7@<u8r@;;uxFB2;:<=%wgbncg2X@@XX=;=@XXXX2kpg6tXXXX;X",
"=@XX8c=%XXX    XX X@XXXX$gg<$$$%17% .. +7=.#@  $&.*<bOO#=@&%%O O  o.##.6fBi#..=iSJDMfue7-9ue-iehwe0sZib0ei0>Xo X..<1>O@O&qy7sDSvijz6%wdl7- ## $@XX =X:Bun<;Xrgr3$;;X@82;$X$$@@@;6w@@XX@;828t8@@%- .  .f7#=ifaCwlVu$X<wbVgxxguehzVSmlggp<XXX XXXXXXX@;prcttXXXX@=",
"6: =lt @X XXXXXX@@X X@=%222;:2;@$XXX X :lg;5 @ X>=6avvj106djiw.OX@X=6rgxmgw$X@$rbhi7pr8;@XX@$2r869;w6t9gncl9@XXXX$6p:XXXXXX:68ww-6d7=;cnt=$X$@XXX =p<;28n%%x<6@@XX@X@XX;@X=<;$X@22;%$XX@%r9xn2XX<+ XX <$XXuVFCtnt2@2aBBg<fztwzDDJJBa8w6= XX  XX X$:%2urBb8XXX ru",
"wXX=rXX X o  XX@    @@@X X@@;<$@X @  X$;gat2X X@uBqjiMzqdijuyw#+XX$rnmVV8@;=X:gg6-%=6:$@@@XX<6;$@9wrg3rc3g9;$@X$$wVp%$;@XXXXXX;$=<r:X2BFx;X@:% X@$uCcpgkB9wn%%@X22ggx3X$;X<ww2;6g8<gcg2X@:6gCrX;dfwXX  @$@tCg2:mtutlgngg7e7=>eMSnlgg6=X       XX%8:r6tuCHwXX @kk",
"2o@g=X  XX;$ X@@=6e822=@=2tu92@X  $X@XXX=2g;@ 264u74%v=>061@+>@OX@=ugrru%8;@%:26=@  @@X%X%$%<;X%X8ugntgx$<wgwpp8ggIVg6=XX@X=<22:arr:=8BFc2@=;;@2trxFFxbSSBgwr;::ggSJFxt868rgnnu6gr8gnngt$XX8Vg@;hmm<@$   X;t<X@8=22w=2221-#.o-7i82282XXXXXX   XX$r6gr8lVxw&& =bs",
"=X=C@XXXX;at@ X@2lnu6w8=X8VVp;XXXXXX226a=2t@$Xw2O>-&O-O.OOO O%O XX$<$X$2uxt:%$:$X-:3;;X@X;:%$@$92;txbGVpug8wxFnnggIJbr6:$XX3r9rgmld8;8nSr= XX:2uVbxxVnBJJFB;guggnxVFCVSCVCnxSJngxp:6kCCcg2$8gr$ 38be$<9 X==;$@X @XX X $==@ .@. @XX$@X=<<@X@X XXXX6896<nxwy&++5vr",
"XX;g@ $2=uBB;= @=8w==62XXtFBr$XXXXX66gxSg2$X=:8:4-0>@O%&  O.O.OOXXXXXX::gFg2:$$%22;625;86;=$@$<8g:knVTJBVx<@wBBBnggct;=$XX@6wwgnaar=@qgx2@X%2tpgcnncJFFJVxIgbnmgggbFVnCFFFSFFbxnnCr@<rkBggrg9@;X  66 :g=X @=X=XX$ X @X=X.  ..  OXXX  @=@XXXX  XXX$:X;aJBku++qss5",
"=2wuXX=ggnnFga@XX@@XX@@X=ung;XX@XX;n9cJJg=X2t8;67-y4@-O.  O.    XX @2tg<gPBgnt=92:<dla8ggw2;$;22u6ngnncPVxxu<8grg;=tr:;%X$%2uxBm86@ =ga2XX$tg8wp8gcBJFFFnkIPSJr2wbSFbnxggxnFFbgtCKtXX@2rpggVr$t;  XX X6$XX===aaa:@XX X X .    . XXX@XXX XXXXX    XX =bVgNq&=jw,,",
"%tguX=2VJFBCJb: X@@XX X@ 2a2   XX$:g9nPP2::gxr@%&1=ie>* O  O.O.OX X=8cFg92ggt82=w668r6ubVxr;$$=;;;929ruVnFIFx22w6rcg;@@X@$@2gVVg3:X<6p2 @:gVBwtg=:8lVCBCBBFKPS$:rKPFxxg8gnbxBFV92gng:XXXpbBKx6pt6<$ X  XXX=;%rt2=@ X          ..@X@==XXXX=282=X XXX X282N;,;r=@&",
"@8n=XX8JFCJBKu$XXXX  XX Xrc8X@XXX3%:6ggu=22pcg%@%O#yl> OO. OO.OOXXXX$9Vng;89%@XX:8p;@X2aVBw$$XX$$%X<:cVcVpSFVanxgrJc8  XX@$rnng8%@;lp% XX;rgg<66XXXpBFBVJnSVSg6rgJJUSgrgbnbnBCn8@2lFxt6X2gVJx6tnmr2XXX @XXXw;X=X  . @ X  .  .#-<;=;=X XX:8gnlr=XX X @ rgH&> =&&+",
"6x8X =gaJFFgg= X  XX;<;XX8Bp=Xtxgw$X$2;$X28=6Fx6>O@O-1>z@OO. OO.@ X @=;lg2;66$@2222;$@@@6t2@@X ==2=6=;CnFVmSTxBgrgKngXX@X%<xVg8;;tr;XXX@X@gVt$$@@  =mKSUVVCFnSggggbgBCnbSBbnxlBg<@wBBbd@Xgbgu:2axdg:2$@X X 2XXX  XX X XXX   ..712r2X X=<68622;@XX=6= XkFN5+55&+&",
"tr2===tcBk8;@$  X @6wrg6=gBr@=gBgbu;XX$XX@8=$GK8&.O.O@%>O.....@>6= XXo$=2==2;XX@X==XX@@X$;=@@@   @2=2;6nKGPJBg8;<ubx<=X$;;gx6%;$8g2X$$6xn8$%;X XXX=$wCBBVnSmIB;8222$rgrrrFVgxggn6@@6pVBrXxg26X@Va=r;@  X= X$X XX  XX=XX @@.@@1<1X==X@$2u$=@X XXXX@;==;gCx*qy,< @",
"n<X  @2Sr=X%   @ @XuCrrgacc6$@6pggw@XX622@uarxl2-4OO. >@ &O >svv;;X@X =XX XXXXXX@@@$@XXXX @@X$@XX = 22=tJJPIgr;;2ug6@X@2:pBg;;@$cg= @rcxcg<==   8$<X=anknFgKVr8X;$<@XX=;$@wCxrlSg= X$;2;@@@XX$wCF2;@ ==  =6a@=XgXXX @XX@@@. .< .@X   XX=@X X@%@X  @@XX;cs4rgq>;$",
"2XXX==X2 XXX@XX X X:8=rlggp2;=9cxgu6pgr6<tutVw 67j# @ O@O  >uiuj=XX@ X%$$@X@@XX X  @@XXX$ XX   X  =X=2BgxJBFg;$;rkSgw<<rpgbp<X$gaX rggbxxVnt2222gw6gX2@8nxgPCIGng=;2$X$XXX$8gglcFt@XX  X @X @;8bt@=uX XX @;t @ 6==  X X   + <= .XX XX@@$=6tr2=%= X22 XXgHAg=*@=k",
"X    X X@=$<2$2gCClt;XX%:rr3$;tCb8w8cbw6nggr8:;o&q>O@OOO @O >6466X XXXXX @$@%2;XX$X %rp8r6<@@@ @XXXXX$Cu;lggg<2rbFVCr8;rn9%;;rgrXX@8xBVnBBVluga=m8=$X  =;gmSCCFEFnnnp;XX$;2<rCFxFg; X@X 2$==wlg68CnS2==XX ==@=gnbmrtlaa$ -117#    =rggcCFngptw;X@Xrt@=;rBs*>&5B4",
"   XX X@X;;cngtnnFFBc8 @X$<u9;2kJ9;$gFxgCx8@$=$ O @+ O.OOO O+O6BtX XX= X;2;@2gu@@rlcxnbgxBg2$=@@;X  XX;X@X;<t28B6;;6;6rcpgpp8;2 XX2cFVCVnt6:X;8=<2X .@  X$;nFPJFBTFBCpX@X$6gFFxVkg8;@$@X$2ug8gn8cFpbw::2X =X ;nCFKcbFBVu:w1q-  .:X@rggmKFVlt6<=XX 86 ;tgHb6 ;N6&",
"   XX =2;2@%8nB6g22g8;$XXXXugr68cp$@8cg26$X@ooo = +@  .  O#@O*6e2=@XX@X=;:%$rBCggnJFxgcJFKCnlpu=XX@X@X =$XXX;;8l;X6:;@8rwwtnc= =XX$=$rbt=@@@  X 6kg=  XX@X$g6Gr8rJFCGCxCx2862lCngglgtr8:$xr2r86;nPVb88$@ XXX2FCFFFSBCnBndbbBzzfl8<:2%@25u82===X X@2;@8NB0kqw>2X ",
"   XXX$2g9tttrn2ga@$$::XX$$@@tw$wB9;;rt@ @@2%@  O  .OO.O.OO+O#*$;6XXX X@2686228tgCKJVncxw:2FYFn=XX XX@X X@$;;uCr;%ur@$9gcgBp@X@XX8agg:@@X@X @@XXlSxB:6X X%X%<gr$68;ucGLCFngpCIxguxcgtgtXXg6==X%@CCSSur@$X2w@aKnFBlBcbgraefJVVmfw6gCg=X@@@=2=X X@XX=@6kSkknrM2X &",
"    $%;2Cx6a:gr$71  o... .#.+<6<<bd@;cg$ X@$=@  = X @X X= XX@X X=trXX;2<XaKFtaBncFCuwpggt2xVa2:98X6@>  @ O+>>bM1xxSn<$2mSg%$XX2@;aFB8@XXX22wr@%8xmgCr6C$   X @@=XX@X;<rbFKFnd8226gbgmVa26u:@X@XX%82xxgXXXpBxJnVCFGg%<<ugbxSVJKb%;gCggb22282$@ @ X7mBDBmuzLV1  O ",
"@ $:XX==pkgg9692 #. .#@ .   -iu=@<= X;;X       +XX $ =w8=;=@   X$2xx: X=rnc;X;tka2rng2;=gw9X26r<<;*v*> OO.O>-t>>8Fnw2<9GgXXX@X@@rnrX$ XaBrgugn:$2pxggbg;n=X XX@;XXXXXX=aVVJKFl6 =@=wbFb88XXX  XgFg8JFxu X9bUCgxJFnS8mgr6rkFcuuprSlt;<taw2;=X $X@wVw7dumDme. .. .",
"X@@XXXX@2gt8gpkw-@o>:  @ .+  .# @Xo@XXXXXXX X    X  Kgmgr$ <XX$X82=XXXX$;=XXX$2w=X@=XXtJK9X@ 266>,,4dO- .   O->VVPV2;:gr6X$$X$6t;XX@ %abSug8%ru<X<FCKb;gbrlB8=X26;$XX X;bJVBKgX= XX XgBtX=@X XcFFlg2mH2X$XCnBBcVGmC9mu;6gbVVBBgpnJu:;28@=X=;  XaLhl:+1z6-@ ..  .",
"62X @@ XX2;=$X;@.o.@. . . .@. ..o oo  X  X  XX X o@ ==gd2rrdl; 2 XX%;  6g;X@$X@%;:=22=2gk8@@62XX$6<z41i1@+O. @&Zx8gw6tV2X%;X:cg@@XXXX%rlb8X<3gB@$X8rbcggSrFbFFngnbVFKB2  @;22=@$XXX=  ==X Xcx=BTFcbgFBa@ X$;X:nnxGbbg$%gBCBBbg<2gFd;=X$X @X X@r8@@o%1d$- ..  .@@",
"6=@o=;2$%XX6p26X .#@..#@-.    @#  X  XX X     XoX @X@X= $$2 ::=;Ul82@@=X@;@@rgpnJBBxruku6$:8$=tkuy&==46q   ..>1w@$:g;a= @@ 2Ba@X XXX==6bg%$XXgmm2$ $Fg@=gl =XuKcVSFVVSg<X XX =2 XoX;2X X$=gBg2ugnCtccKg8@= @X@gPxUgx<X9JVVxgt6=rg82:XX$@$XX=;@uct1ibz-- #. .@ .=",
"@2628888%@62gpg;#  @oO<< *99-@  X   X@@XX+ XX  X2r=o = :$pV2a; ucCCxggt=X2uau2;2gVSrX@:@2gxCg9rJKq.&O->O++   @>O=%9<gu;XX=wct@=XXX;2$6gxuX@X;r2rB$@:2    X=  @@=ubLFBCVb2=XX  XXuJl8bJSlbBPKu$ubCCagCFTr2= X2@tVlmgrr86268266;@6r=;2%@X@ XX@;p2;inMC-@     @.  =",
"=lcag8=6Bxb8FKn@ @. .7d7  .   .      X XXX    $2BSb:6rrX@ <$8<<aJFg82X =X 2u: XX XXX@  @X@;@28g2*@>.& OOO @O +->2:X6;wX XXgC; @ XX$$2gJPx8@@@XXX;X@X X@X$<  $@  X6nVxbBnJcnB2X@XuFu;tuutnJBn6;lBcBxFFE6l= =oXBaQKVFlVScggxVVFlaxpur=$@ @@;acr;@raBm<.. .@.  =-##",
" wcg6=$=$<8:xx<$@    #-    .  .. o   X   XX@@XX@cB=uBr X@   $$XXX XX X@ @XXXX  X@ XX X@ X@X%2;%XOO@OO-7$y&&    <@@=:a@@$Xrb8X$X=;;:%6lBg8=;;=XX$X6X@@$ab6Plmn =X$6nFFFFCnJn6X  @tg;=2;rbJCBgpBg8gnKPJFPHBdutacur6rVBnknJFnBVUKSCJgt9$X@@;gSBr <gVC-%  o   @wd9#.",
"=@2<o=36=$X=%;@X.    . @. ..   .  X@X @@  ;2l@X=6F=6CXXX @XX X   XXX X$   XX =X XXXX     X  @   +@@ +O  L1 .OO OX@$X$2gXXxgXX$gctr@2g8$%;g$$$$xpr;XXXagb2brr6k=  <CVBVPKFS8==62=XXXXXX$tnSBpuVCtt29FnFCFxrggpud=8Vl2rggg88nKHJPYIBt;$$:Bgprtr2:=:#. .. .    @.  ",
"o XX @$XXXXXX@X   .o  ..    ..    X @XXX @@ =@X=X =X X XXX XXXX@%@XX$  =@X@@2ur;$$@X XX   $<X @XO   + i@b<OO   OXX@r9gr@9g@@:gr6ldr=$@2;$w$%$<VGBB;@@tCFr=ga2tc=@;BcVnPKFx66wggc2=66@XX @%9p;XX=:$X@X8bnVxFrg9= $$Fb@X 6X 2cnFSJFc<;=;grrnJCBBa=#    .  o+..@#@@",
"X @X XXXXXX   XX  ..  #.@@@..@. =$X=a2X X=2 X;@XXXX  X=@X=XX @;X8x6@@=2::$@=6xbnJtXXX X@@ X@  X @=&O+<1 4.O  . O=X=X@;;@<=$$@X6ggxttBggVFg<2$6nng2$XXX =2;un<BBr=X2@29BCx8222alFSJn92$XX X$X XX X@@$X;ru$t@X$X =XXXX@X@ XX2nbg2@8gg8$X%gKVVFx:      .... @#@#@  ",
"  @X  XXXXXXXXXX.    $#+=<-@  o. X@2u@@2ram=$@@X@ XX= FSBg26wln6@;gu259xFVctubBCnnx8@@@ @@  X@X O4l>  l@OOO  O @X=2XX@wtrXX$;$9tcu;t:2rVKFxw9pgn2nnr=X@@X<:u6nCF9% X=g8@XX;22gcapgBngxt;X  XX  X X @ @@;X=$gX = X;  =2@2@=6r@X =;rg::8:tVCx2X@@   .o++...-:=##  ",
"X    X      XXX . . %1. .##O  .+ @X6q;nKJCJt:X XX@ XX=;FFltct6u2=  tg6utgncglJFBbnnxlbu@ X X@@XXOai>OO   @O OO O@6%=X<gxt;;r@X$<rptnggprbgct:gg<=82$  ;gX=6IBgnJJg%% X XXX@;8bFu6pVJJJg=;=@X@@X @:X%$r22=X;@ X$$2;@5562rbg8= X  <nk<X2l6%X X   X ... ...=<=.....",
"X .  X            @#ew.  .. ..  @@ =$=bBKnlccgX = r@$rgCBBBC2 XXX==X=;$8gCFcnFVBKVBVnbnF8X X  X .Ov6-#.>OO@ O..%;l6 X=p9@X;2$;wggx9;pnJKJbw=23;rBr2XX@ r;=%VgttuaBC2 XXXXX%28aFg6xVbVFBVFt2acr@@@@X:2r;=@@$@X6g8gaBKbcru@8gr2<:=tg8@;u9X X  XX    .    . +.     ",
"  XXX  XXX  XX  .6-1f6.  .##%@  X$$2X =gbt2lPF2  @cX 88BBnku@$@  X X2$XX2gnprptgFCnlcFFbF8=@ X@ .& @O   .OO.OO.1;gt =9g;%%8$;=8p8tBbu6gpgw2$@%9nbw@gr XrX@tpClg8w2622@@;$8nSSCFb8pCbwtxblCFJKCp2r2;<6226gC28XttxgUmJmr2  2nxbge6:$$;puXXXXX  X     ..#@.    +   ",
"@XX@;;X@XXX  XX@1b1wf@   @-<=O.@XX$8;= cgr=8Bl8;XXB@;CX$@=ra2;;62=@=;2;XX%:$=@X%pcFFBSFnBb6X XXXO O* =>O>.&O.O*wr6XX6g;$;%@X;r;;$gFJk6;;=gg8gGSSgpr8@%X$X=gxgVlBgcg66gxbgkKCCVg<2pxg82;2gBFKIJFJJBn8runcCCJJ8u2gcCgwX$ =@8Vcmae7$$;uwXXX       X@...%<-@.   .  .",
"6<%LJM7i1-=.  @wbauu1. .#11o.#=.XX2=2t8nbgg<crXX<;gXrw@;@22;6rgCSca2ra6@X=@XX  X@8nFBFCp8;XXXXXX .XoX66=: XX X2ug; =8r$@$XX:288;2ggCC8=;2pxFBKcbFbr%=@X$XuVC8gnnVSlt=28ggcnclla2gr2=6r828nBnPUJKPngrudllnJBb2gtkd-=  #  @inzi1@. -97@ . @o.##=-@#@#<e>.@+. O  $O",
"-uedfPDSu$  +@1ffuuu-.#6f< ..@@.X=t= 6pmxSKnK2@$x2r:nnmgXX @898gnBBgcVg6rr2=XXX@@:gVFJFk;XXX$$2<+*=$  ;wX  X @6r8=X=2@ X$;;66%$;;88rr;28t9xVFCBJCBg626;2gg96l:X8BSBk8;6gBxt; X@X@@=22=  X@X=cFnlBg8rxbgamnBt82=@.. .. +$-6<@   @.....O$$--:yzmzwduibi#   @>&--yO",
"$$o#eJbf:     .@1ye- @67>@. .<e7;8a8;=2ggxVgF;;prgg:X2g$$$XXXXX26tgqpgt2at2= X@@6gnSVCFFr<<<gbVxi$$@<@X; X XX=82;XX@2XX=6trgg2$;;6;=;;;2%X$%ggckBFCgulatC;=X@ 22gaglx8::8:;X    XXXXX  X XX @@@$XX%<=XX==2g:= XX @ .. + ##. ..  .     $7VCBMbmVbBmBm1=%=>yZvmbC&",
"3<@@1zw=. #11w3##-=  1iq@#-#@uf18lgbFt=gngB2cr:Vg6Y;;wr3;<%$=@XX X$@;$$;<=@@ X=X2cSccVFFnnVxSVJJzr=8g<=X   XX68@= X@:@=8VVgkguwtr6%@;;@ @$@XX@XX:pbgag5@X XXX%rg8=@:t2;=$XX@XXXX XX XX   X    XXXX$$+  X  $X  XX ..  .@##   .      .  .6fSDz1#-=-ibb--wzDidqvZS6",
"uf76..-t7-uVKDl7  .@@<ei#-e7@=efaFBBPb62ugn6awXgg;gpl$8xPFxw;XX$$XXX$XXXX  X@;;X 8trcKFxVVnxFJSBl6;6lSr6$ X $g6XXXX=@XXrVcgr6rxBg8$X@@X    =<@XXX$;X XX  =X@XX =@   $ X@$X XX  X    XX  @  XXX  X       X    X       .-7+      .    .  .-ede% + .. 17eeBNivw7jBZ",
"6u1i# -zhizbzd< @  .1ew=<@#--wzmnFFSVVc6gbkwu2@2X$Xu6@rFgggbg68ggt2X%@@ XXXX%;;@X$@%pxg9gVVVVCBFrt=2rcSV= X @g2@X  XXXX6g6;68aBVg2@X X =828tbgrXX XXXX  X  X  @   oXX  XX X@X  XX      @   X  XX XX    X  X   X$ -  .-w-   +     .  ..   .O.  #  . ..+=fMuy&.sfv",
" . . #@@euw@ ..  *1=O-771---1fmDBcFKCFFkpg8$:@X %X$XX;X2;XX=8gggVBg8pw2X@$@@$$@XXXXX@$$:gcxxFJVnFp;@wBBc= XXXt;@X  X@@X;8%$ubxlg2@X@@%<tnKKFBnnu8@XXXX X X@ X X +@   X @@XXXXXXX   X@  X@XX X XXX       @   X@  .=  =ew       .   ..  .  ...  .  .       @@  O  ",
"@   .    O.    .=-<<-6izfe6ezmmMCBFFncp2%$6X6%@X2$X<$$$;X@X@2gxrcxxBKct%X$$@$XX@XX@@XX$2;6urFFFVJp22gBKBXX X 2;X  =XX X=<$$tx8=2:X$;8gnFKYCBaggap=@@XXX    XXX X X XXX  X X==@$X X  XX   XXX XX%           X X @< @@-6  .  . .+ .  .  . @o.   .    .  o  @  .O. ",
"    .   .  .###.#.@.# ..#1lBCBBbnBBFg2=X$;;$Xp%XpXXn2=2X@2=w$gxpX;rglt%XXXXX$$$XXX=XX;26:$8xbxnbKnu$g2cgX @XX2;XXXX=X@X=62%@@XX=XX;rxSFbgFbwu6 XX@  XXXX X X=X @ XX     XX @@X$@=@@XX;228;$XX8r$XXXX   X@  X   $# @<u.   .   .#  +  .  . .@.          ..O O  .  ",
"<61# @-179w6#o$#. o ..-77dBSCDDmxgpgg2;;X@;::u$$p ;Cpp=2xgpr8g6;XXX@=$XXXX$%%;;$X @=;96%@@:gr668FKg%$$9<@  X$;%%XX=;$$XX86@  X@X@X;9xVb9rt< XX X X@ XXXXXX@$  X          @XXX;ugg9:=2rpgCu28ugg8@@@XoXXX@ @XX@XX..-7. .   .##.@#.@#<7<#+@.         ..      .O.=6",
"ild<@<eibble-..   +@#.=<wbCvfmKGp8wrw8;$2$%2rpXXc=XulV<6pap2::@29=XXX XXXX$=$;=@@X2898;@2rgk3;:rkc2%XX$X@  =::62@ @;@@X@;=@XXXXX$:9ruu9;oX+X      = XX XX$X@X @  X     X XX;8tnFFCx9%@@%39xSg6<2;;;@oXXX  @ @X  -w3>  @<6@@:61--@#7flt3-#@ ....  .     . &&>14jN",
"7e7#.=<-71:#    @..o#.  -lSbimDMrgcpgxur9$%6gxX@g6 2Sc:X$;X@$@%2g2=XXX$XXX$%X@@XXX;r6$$wrrur:$3g9<6@$@%%@X X=;8%=X=;@@@$@XX@$X@@;tgp<=%$@ o@ XX   XXX2@2;a=@ X X    XX=wr86gggcFCCcu8622X$tBc6@X62662=%=8<X@=  @%7:   -eu-:7yw%-@=inf977=-<-#o+@   .    &i7<64yi",
"@+   ..       %-#@.... ..efwwzMu9xVggnmSgrr9gu;$2uX;x$XXX:;2X;6%;$@XX$;@@X$@XX@X=X$$XX$tg2=X86tugwb$X@=r2= X@=2@ X66=X@;=X X=<226ag8$XXX@X     X:$$66grc8FuuXX @    XX<gxnBBngcbBbr29gt%X;wr:@;62;8gg22<Vl==X@ X  .@ .7ie7ddu6@%.@el7>:1:161#        .#>=y-O& O ",
"   .     .+.#7di%<>% .@#%-# -fbupBSnxxbFmnc3%$8r;nu@= XX ;cl;r6$@$$$@;<%$@XXXX$=;;%@;62;t;$=gxVVKBS<X$Xg2$XX==22 =t6@X=w@X X2glr8u8=$XXX    X  X688bgCgVgBgc@:XXXXXX  $ragbScpgnuxbggVVgpu6:2rpg2@=9a22@gBpw     . @ .1lueiq3:@..@7i<@##-=#@..      .=19.$  O   ",
"       . -:*<cDM7iu6.#. ...@1lbibFCSSnxnxcg:$%nx;FBw==;X=$gBgp2X@@$%%$@=6<@X;;%:===2gcr=$;;6ggnJFFb6X@Xg=@=$X=;6X28@X @8X XX2bClga6=X XXXX   X@=$8ubxnxVVg=2 ;==  XXX =tg22u:@wg<cPJnkBFSSnkVJVgr<;;6;r@=lxl@  X 1. . .w61#.... .#67-@o.@    ... #7u7<-&@O OOO O",
"      . .ic7:zDBzBd1.#@ ...O-eflnSkgBBVbpgp8wrJg8KnB8:ag8;gJBXX@XX@%:$X<pr=$88;2=$=6gg2;rgug<<;rwVb<XX$g;6a2X@@@X22 @X @X  X@tBnFc2XXX X     X$X;udu88gckr@ == XXXXXXX=tt@X=XX<<<gVCBnVKFLJBFLBupgp268b2X6wrX X .%<%1%<#@#  . + .*33#  @...o...O6ilf7@    OO O  ",
"X  X   X=Bn<<VSCgr8:=@@@@XXXXX2arr6umBVnrtbxg88:3rrGwpFnwgSx8@XX.1alz6=176-<w->1%XX@$X%rxCFc=XX@&6y# O+i1aw4O. .@O.O  .O  &. =idg6@.   . .  #7-#:hCu9rkCgc@@;wXX$;$@XX$$$@@$=@XX@<uxLFrgugVcgxng9pr:lBVw;;p$XX;X$@2:x9g;X$2<$$;XX<88<$@X XX   XX22r:@@ @XX  X  .",
"   X==XX=ggX6VPCgp8:$X@=$XXX  $;$@X;utrr;rnn2XXX$$XlgpgtgbV8XX;;%7eubBze7eiii%@.XXX$$@;rgnnt$;XX-y&O@>0<&>&@  OO.O.O OO O O. O&-;$.oo     @-1u71ehew6ccJKx$<$8@=$%%@$%$;g;X$<<XX$$$<ur$;%%rgggcB68gullx8rplg;XX$62wgSxg<$;w<:pr$$rgpg6;@X   X   $$oXXt= @ XX    ",
"XX$2g6$X<pr6knCBBgt6;@@=@X  X  X@$=@@@XXX$8r@@$Xpp@=rnxugp8@XX$@@-#<fDbw1ezlze>#@%;:;%2tnBJk69%=>q<&><> 7=@++OO O O@O O.=wq&OO.O oo  .. . -%6Mb1ar2:2gxCg6@;@= X%X$=6w:<b<@$2;X;2;$X$$X=38rwgxSSxxxpgxV8<xSb:;$68<8BSB2;23u%Xuuwgg<;rr%X X  X=::XXXX=ckg8$X=X@@ ",
"u66rn8@$2r2:rpVFt8:;$XXXX  XXX XX$;XX@XXX$@@X$;<FJwX<Vx8<@<@XXX;1> .-w1%&-wwdf6%$:68629lxpt962$@>7611>+@w&$O.   OO@>#. O.sb6O.OOo$@    .@#7%-bGi6<<:28rgX%$@XX @$X@;wgg8w@X@<2;ggggr;@%2pgr;2lVVPmggxgr<;8BB8u:t$X;cnV<;826;$rgxcrXX<2@X XX X282XX=@=2uxJlttdbbd",
"Bgr<a=@=gBr$@8gr86;$X  XXXXXX   X X X;@XXrg2w;;wFFxurg8X$@r%;8<wBa-%.#+@##-##1=@@69669rr6=X@$@66il=>>.<O= @ OO.   #<<&O O>fv1 OO.  o.+-ew-wwwhmt:;2g8r=<@86XXX26XX@29pg9$XX=pgrggxCbr8uggggxxgpugg86gw8r2=pnbxw%@X%9ug@$$XX$;2rrt;;2;$XXX  X2r2X@ @X= $2JCurcJJS",
"rr2X=@o@$r;=%rr2982;XXXXXXXXXXXX@XX=$$@$=bJxb8;pVCJJggr;g8xuug2uDMfiyiie96<#@6<#$<;;ucrXXXX%66xgyu-O O> OO@ .O.O O>qyy< #O7Md<&O .@.#9dzdezfiew-;6lba2@X62:X Xl8XX;xg@$;@;=2gxgr6gnCnnCVbggFFBr;2nl2rulS8==xKngXX @@28$;X:%232gtr==6=XXXX X6t6@    X X@=6r= ;wrr",
" ==@$X  @XXX$;2:$2862=$XX X XX@XX;tgr8ugrVFlp22pBFSB8gbxbxCBx<;gBnBBCDDbzlee7ue-@XX;lBrXX  2gtt;O &  &..O O .= OO.>6jbuO  &77<&.*w7O@iBlimDz777962btt$=X;$XX%=n=@X9VgXX@%r;$<;<=uxnSFSFFnburtVnucGnxxwwBg:@gFgtrg92$%$XXX22:;;rt8=@@X XX X=2;X X @X  X=$@=@X oXX",
"X@=2=X XX X %2rp6gSSbg6@XX  XXXXXgCBbnGnrBCg<2gCBCgg$gBGbmbcx2wgbfzzlifibVzbew9#$X$rg6@=XX8atXXX.  O. O .OOO=q%4OO.%uZd. O OO.+>67- #dCDDBaifbhM6=2@=22;X;XXt6B@$6xg8tw=pb2XXX=$gBBVFSJFVJSkwBFBFBurr<2gngu<rg8Vgr;$%$X;ppr3;XX=@$@@XX  =2;@XX@X@XX <-2X@X@=ooo ",
"2<8c;<X%$;2%u6;=rFIKKFgXXXXX$%XX@rKJCJInxmlggmVKLVpVgnnFBggu<3<ufbmzza6yidi6-*#.@6pg2@$X$r8;=$:XO. OO     .%#>>6# O >i6&+  O. O@=#+ @fmfw1--wzMi6@X=2g6;$2g$cnB$@g8%%:=$:guX2868xxJKVVSbllFCxVVcSBr8u%9cVBgg226gBr;;gX$$uxg22= X@XXX  @2e8; X$:2g22$g<;@  t6@$:6",
"rtat:@$<w8awg$=2rVKILn9$$XX@68$@X;nFFFKnClnPJKKSFKCPnPxFVgtg<<66bzaefa1>77<$.@#.8rgr%$%$ga= 62@@OOO    *&&Oq>qwf>  O#>.&O.O  OOO.   -abi>=o.%<1-$2=X;;XgagP<FVg<g8XX$%XXX28;2rgbxxxCJngggrgp8gggcg8298ggnk28$X$$w<;;p2$$8ccr=XX@X  X   $<$  X:68br8r2:;$==gFCBxB",
";:;==X@6gpgag$X@6gngr$%2$@X@<<@XXX9CFFJCxpxIFCFGISBBVYCJVmw;%rgr77ilbi1w7-...@qbCgr;XX2ng8dttX   O& +<>y&1&016yjeO  .O @O.O  .O    .3bClbhi1=+.# ==XX$2nVac<gKBV6XX%XXX@X@9p;;rgnxxVxr6ggglgptrru88pxnKcu2ug93@;:wg2;;%6=88;@X    XXX XXXX X$;8uxxgr2rr9xlCPFVr8",
"XX @XX$8:2=<;;XX=6:=$XXX;6ggr<@XXX;nCFSCbxlVFVxbx<BKFBKBSVVg$<6X%#%7bBe1#-ebndidw2;X:ggu2 62;XXX .#$0iieiji01@>4vq#OO@O+O  .O  ...  :fMfzDDBf<   XXXX@8br;gtLVJn:%28;%X@$=tc828uVlnBr9gnBBnlggpgVxcVVnc6<;xnxg<<8gp<X;$<=;=$$X +      XXXX   X;8ugr<gggnFCVbgt%$",
"2%@@XX;;@=X@ @X=X@XX@@%<wugg9;$X  @lBBcgxgwgVJl6r88tPnnJVVSBgrX$e6. wSz< .#=<22:===rgw2=X    XX@O#@10ql@ffvid9ylBj7+ O O#OO.O  . .@. @<1-fBMze-@XX XX @t$8urnFCYBxg826o==:6g862tVxxgrxJSbnBVJJBVVVBncg6@X;%88;9%%t98XXX@@=;@   .XX.  $:2:=$@@X@$<;;=c8wVxr998:;2",
"g6=X$;g;X XX=X   X X@X6gbguggg9= XX2tpp8;$$22ll6JKFn8$8rSxBVccwglie7ebbzzu7:@ o:6gt2%$%X @@X X X OO>>@j mvbBljwZs1$O   OO@&O  O  7i-     --$@===XXX XX= @<x2cSCSPPBu22<w=%@@=228BCp=;rggFFPPISp98ggtalgggg2:$$;XX228@ X@@8r;o@$.     X==;6ugr;$@XX$<6X%8:@$X;%2;",
"gr$X8tc82$<6a62XX@X@:;<6trucng9@XX X<6p8X@;;X8ggCFg6X$X=wVSbcg;w1#=111-17=o#@o:ur; X=XXXX   X@=X.@@%. d@60=<=>+7&O  .O..O&66&*:  uf< @@ ...  .$@XXXXX$8X@X;8gJJVnJFc66ug@XX @;88pmpXXXX;<;<=<:$@X;$XX;==:$=$X<@%<%X==@$$=26222% X$$$=<22=tbct;$@@;<$XXXXXXXX@8g8",
"rr$2:%<2r626;=X 2r<XX@;<;<282$;@ XX@22gw$$X;wglVpCKnnx$XX6;rbg2=w61=#-<<-<%@7ha<=XXXX  $ $X$tX$%>>&O&Ou>0s>.O&.  O.OO O &*ibt75@o@##@  .   .    XX X:X;gxx6rk888bCVbtcm6X X XX2=;rp8=XXXXXXXXXXX@XX$X@X X$$:X@X@2X$XX@$2r8rgd9-. oXX@<2=tggu2;=;6r2X%@XX$XX$X9nn",
";2X$  %@#. @.  =$$X  2ww<@X$=@@=@ XX+a7::oX;<glCCBSBSFn<XX =<X$X.=wBBnBBngga2=$ XXX  X@X@2gg$;6$@i8<@$@tgc26=X Xo XX  @@ XrBn2XXX  X8u;X;;=;a=X X  .X@X$JScg2XX@:uFFmmu@@X X   X#7lz7.     .... XXooooo .  .   @.@...#<7e<<1-.  @X$X=2;;uBgw6t28gg; XX =2=<*4dSZ",
"= $ .& .  @@...     XX:8br@ XX$=X  $$ 822oX==BnnJPBFKnnc82@XX=$X@@+<@X=2@=:=X    $===XXX=9ngrCBpf77m2@$npBgg:X X    X  X=X=gaX X @X wcact<gr22X@     XX ;cKBBXX  @5222@ X  X   @.7zM9.          XXoX . ..  .   .  ...@-<-. .. .@XX@X;ugxKVggBg6pw2X;X@6lk2<96yji",
"-: =#  ..=+  ... XXX  X=2=XX@$@X $=X $$ <=:=g=uBnFJPCJYJCCV6Xkb$XX %XXXXX$X X28wblggga8:2889w6gr<X6,a;X8;2==X     X@XX=XX@@==== =   X$8nnFt@XX XX + XX@XX@Klcr= @XX XX XXXX X   . +$.   ...   ..X X   ..  ..        ..@@  .@o.  X @8p8rKJbSSn96X$@@ %Xr2=,=4&$OO",
" %@o@6.. +  @.   XX   X  XXXXXXX@  @ :X@==X2r<nxB2cbJnbBVFBxnVxrge@o XX X X2gbBVFBxu6226X;$=6tIIru2l62u; XX   $@ XXXXXX :=XXXXwB2XXX @=X%=@@@=2@%o+$XX X =nFa==X  X@X        X    ..  +@.          X.  o .@.        .   ..    ++X$;rnVBIPnSBBnFg%ur;$@=  6>*&. &",
"= *9B@  # .@  $ X@@X XX  XXXX@$$ =X X w2@;=gB8rCBn=taTrJJVcVngxgVx2$o=<265rrrlCBd6$X@@@X=@$22c:2gw2trlcX@XX@X.X X$XX@X $@;$@@2cVVBrXX X$88%9t$BVBlmBl; @X=2Bx= =$  X  @ X  X   @.            . .   ..  .  o. ..      O..  .  ...9hgtrrgFFJFVKFVVFKbu:=X%w*  @ O>",
"#w.:##67lb6    *XXX$XX X XXX%==X   2r6kmg;98kVp2X; =82 ;wJngk9gVVGVSBVCJnnBlwdl8@@@@XXX@@ 2ubbgBl8@5bTgX@   XX @8X$2X@:%%%@@;rCICSbxt$ @%6VbFnbISu2CFF;X  =82XXwr2$@X:<  $;==6gl6@   ..      .           .   O$@#@.  .  .   o7zVckpgBggVSIFSFJg9gnJng6$:fO.OO.6=",
"=.b -  @==bLbVS7$XXXXX@%=@XXXXXX @X:6l8:%%rFCc XX6;X X: @6gVntgVCKFGVbxBcgCYFr=XX  XX@XXXX=6KJJ;m2<gc2bX XX@ @2Bg@%r;%8<8Bn2X%92882tgxtX<6CJCFPBCgSeb@=  X =%X8=nSbbVmg6ullt8qrw. ..   .       .     ..     .@###%#@..   .  .-eiuxcBngtgFPPn2tBFut;8wBx8>O&# O>.",
"1*f.@@  #.%11wfbng6=@;@XX@==%@X@XX tJBFx:=9Bc=XX@  ==X X%@X@:986CJCKGVxbcFBu;X  X  XXX=<86;8rFJB22dg=g @@$ XX=6VFk2rcw;gr6$XXX$@o=XtVrXX$XX;28lJKIna =X@  @XX==ngKnxSbggbauld:XX$  .    ..    ....  .@@.#.  .@$@.@##@o. ..@#=whMVVCPgX;gLg8862@ ;8a6X@g6#%O&@O .",
"-%.-O ..-# -<edBIVFVggXX$$X$pBFp@X pFng;$$gr@XXX X   @X     XXXXXX=unVBCnlar;XXX +  X@$2nC2;uVFYab: @X =  =6@$nFt6:gnrX2g8=XX@oXXXX:lSnr=XXX @=X8xB;r;CbgX  X *mbBVFHnw;w:XX@XXX  ##. @O  . O=7dzz7=%16=<%-1#.. .@......  +@7Dz7$6nr=68bPSrX@$;rug26B<$ @ObvKmi=",
"  +  .@ =#   .#*X$rPPBg$2t8$8xFg22 =xCFaXXF%;$9uX=@X@dl$: $@ X @ X@ X@=@XX XXXXX  @%X$aVFPlu6;a2==@XXX  XX;X@uKbBc6CSgX;XXXX@;rg6=X=gnct=@XX     ;;6=2=28XX@ $=eFPJFa2X:XX     X$  #$.o#@-## =wbVCV1-.zDmy%#. . @   @    #<wzCDBJKSBguurccxggCCg8 ::@@X #yO#&7 .",
"1  .+     +@&@. XX$8xBpgFFu@6xVa8 =$bFrr$rV$X:nPnFnxbglFV:   @@ $   @X X X@@X  X+X  X@rJJc8X@X  = X XX=X  2t;$6VPxBpgb;%XXX @;22@XXXXX6gg6  XX XXX@6BCSlrbX @  X@=:=$  XXX@X Xoo.67@7Sd.#dSw1eBBMMJbB6t7$        ..    @=<1iCbBlgbVSBxxgVJnpkJPK; w2l= :llIMjZvN",
"*@.@. ..  . . .#@;xFFKg6Cg;@xJCg;X@@BCu26g;%$tVnbt8umbBgBJJS6 XX X@  XXXX   @  @X.  @X=lClFa$XX X XXX  X@ @2=X2B22;:=6XX==$X;82=@X@@XX;wga6==$X@X=X;=$   @2  @XX X$ X X      X@@*@=-iBauz6 6zDe .   @ *#  .         ###@=-o1ZDmibKxnVnPx;pknJn;X$X$; wx6>>O>ljy@",
"@@%#oo.o.#=...7fgFp8ugBSKg;%kngr9=X@g62=cbXXXX=XxbFJKCFBxdgxFb%X=X X@@X@@@X   X$X @=    Xlg8@    X @X@;X ;@pwpr9Fxg6gX$$XX@XX@@ X   XXXXaFPFVnp2@XX;X; =  @$@ = X   @XX @X X.+=<iMDlzDBC1@. @ X  . #    . # .  ..$##..#6#.  7MlzcnFFPTSx:$%;@@;=6828Nts<O.O4q-j7",
" .777f1zDJSi9elzgSFFxBSgg8=%gng82XX2gr6c6%X X@ @ XX2rX@wKVagSVnJVCg;6luX X@X$ra8@$oX.$X XX X XX+ X $@gKg6B%X%@2Cb$%;X@=X@@@$X  X X@XXXXXuCJVVCx8rVc2@ w6=   X2 <g8X= X X     .:wizDBVJDLVb1. @  .o    @  .zDCw-> iBd=O     ..:<zSVmFFBgg6;$XXrbBFF8@@:X@>.yy14j#",
"3nSMwhibmbe-=ehlxBSkgBcn2$;8nBt$X; =rwa2@ @;tk;=oX =  $X =$gFgxglbbgpaggt68tgFB6gl8X@@  @ XXoX @@@w88JUngFn@B6rgbpxnnlB;@@XX XXX    XXXXX=:@ X%%@x6:=2x8==@6  XX@8aa@    X@Xo-wfVmzlbDDm9&  .  @.   @.#$$@dw1 %e9zf= .$.@..#. <zg8uxJLlgCc6;pVFCFbSBz<@17ByBw0% ",
"lz-BBzMZfe-6uZVVmGBFbcBg8$;2ap2=@X=2gc2 X$92glVB=6=:==X   @o@6gBtlnc8@X@@=ubgglu6rr;  X  X @@$aX68VgxCxkPg;$X2:;@688lnX;agt$X$=X@XXXX  XX  XXX@XX=xCVFtlxl= 2X@+ <d$  = <2:X @=%.##%wBDy$. ... X=#-zDme-O t<-1fm+#$@. .<u=  o 7u$$$2gcSFJVCbuulaqcFKz6<imMDv46=u",
"f6#.lbM1#-#uzKVfzKSBtgCg286pg9:=;@2gg$X=8xPFnBCg99xSIV;XX@9<8;XXXXXX=22lBVbgxBxt26xb<@ 6< =fSDD1<annl;$@V;t$2r;%$XX$68==2grua;<8;XX XX @XXX@ XX @ 6nFxnrabCu6$$    X@  ;BBx6X$XX;a989ra2X  XXX@=2t8ggCB@==2== @ . @i#@%#-#= % @ XXXX2gVKSFPJxnBu2xFFVKGVnUp8;<px",
".o.---=  -1zbbizGBdzupa;68;wg8%;9kb8X%gBnVPJSBbrkgcxggc%;@2Px2;@@@XX$;2gBnggkng6%%re..*fD1$ebS6wr26a26r:Furr:2@%XX=;$$@X=tr8lna====  ==;2= X  X  ;@=a:;X;Xbb8g;;XX  @X X2Sb6%=@;6axg8;@  @X @X@2gu==X XX  XXX@ =.@ @ .:7. -#1## XX%2rgnBFBSJB8;6VFJFSBSGgVn28gnx",
"717wmbz-%#%fSSezmCGSgbcu6=2ggru8g:X$2xFCCBFFVxgrgcggJ:pCg<unggnpar;:682$uVJcgnp@  X@ .@6l1ezilJMB<gc;=FCpg6t$@X=2rg2XX@$X =unBkg2=@X @<dSg2=:;@X   $=;Fg@=XXgtuX X     XX=26;2bbr=;=8r@X+X  =68$$@XX @XX$XX ==;:$># .%zCq%#-bbi*XX@=<6rugBVSb2<lCVFBKGKCIGBgu;82",
"bzfflSz<#=7fbCfMBFIJbFc62;rckpg8$$6r8gCBcgnnVbnxFnCFB2CnSlrX;bLFCbt8;$;@:pbbg9;X.  X .  1zne-.bJJx$=X28l8gu<@X=X;gg$%;X;@XX===282XXXX $tngFgcJ2@@X:w68KF8 =X@a:X  XX   X@==2w;uVu== X=   @X=2ub8  XX2lg$a662gbF@f<= -iGz#.-wbl7.XXX@$XXX@ukcg8;89gSnGFKSVSSPpb;w",
"Vbiuubzy<:ffamnCSBJFbVr=8xgrkp;$%%8uulg=@ X@<<;X=X $tunJxC2;2lFFCSFLbrr622222;@   @ .  ..fDVy16DFd6  :i:nFb$$$$  := 2r;;rtta8;r8@XX     9SggBnB$  XuCFFgn2$;=$@XX  .X   X2d6%  $XXX   X@X2@2e22;=X@9nn8@bcKFgng2o.uwlMVf->7eu1-@XXXXXXXXXX<gng8:$X;6BSGmnISFPmGV",
"Khd7zlmzw=wfzCCmcnGSgma2gVgrgt:$=X6cg2X XX$X$XX X;@X=bBcxxCKFJJIJBbxu8pgBBg62uw@  ..=o  %CCMm7-fga2rr7: Bng$X$X@@  @%228nganaX28;XX  X  @8w8cBg=@=  bb=2b62X6X        X X=lu@@@XX@ X XXX888mm8=X===9Ct@8ggcCC8@@#o#.uBMB7=  .@..@X  XXX$$X%pcng8;<8$$2gxVIVJnKlP",
"DCz711-71-7fbSJClgxbxVg=rgbbgrr<26gg6 XX=28;$X%26228;;;<8<PSCJBnkkxp2;rcFBcgr=@X@oo@6-@ -mDBmfK7r2BnlX1#86$@X$@$$ XX  $23;@$X 2u2$XXX  $X@@XgCx9X X=$@2t2@tw =XX  X  =2:@=@XX  X XXX  $$$;hFg==$r6XX2=9kX=2pbX221e%@#-6u#  .. .. XXXXXX XX;8pgr$$<<@=wgx<mVSSKVn",
"DLK7iety<<<uCKJna28mVVg6;unCg<;6gr;@XX%2lxlttrxFBCBng6;$wrBSBJxlgggw8ggBCCFna2XX ...<.. eBi=1BDb=:2=a8w<;;=%$$$X    XXXXX  XXX XX@=X X  X@XXgJl== XgxgnFgtt;$  X    @ulwu2 @  $ X  XX X;:ulu2@ XX X;66l;8;XX =uxmb<w#.- .  .  .#@@X  X@@%$$;txgr6;$;<;;;p8FSKSnK",
"DGVDVxg8;$2gSJVKbr8glgr:2uggg2$rg=X @tptVngBVkgcJcCKBmbtFKcJSxJ2p89gxggggccp:       ....i7- -zBu=1ewMuu7. -# . .X X XXX X    X XX$;=XXXX  X wmg2@ X8nBFCFc6X@X   X X$grgBlXX  X XXXXX@2wrx8X@$$XX X6g2@2C8=  ;2bffdbC1%-.   . .-86= X@@;===6gg8926wr<$X$68gxSnVS",
"DMdzVFcg62rgxFKSKnccdadr86=$wg2XXX ;gccBrnBVg22gclVVnGVxSmmSVFV8226<%@XXXX@XX  X     .. -#  Owe-.-dzCt<<. -% . @XXX  X       X oX$26r2=   +  @$$XX XuBSga8=XXX  X  @;rpBbrXXXX XXX%%@@<rV8;rr68r2X@2g:@tar;X XX2%lBeBBme71<###<fCg;X;2=@==:pgw:822ww$X=;;XX2wgBS",
"FFcbVVup8gxr8nFVKFCcpabcg=X;gg2XXX$ratnCnSxgrw<X@:cKVFcVSnVVnSJKgu2XXX@XXXXX X   ..  @@..-1-.@=## 6#e .-:+<<.. .XXX    X     X XXX%8aa2 $  X @X  XX @wct2;@X    XXX$;8rcrX  X X2gw8<%$tCBggnFnnJl;@22r2@ @ @2X @->77VKDDbfftwq7dgr=X@:=@X;rcnxr68222;;;;$X=w$;rc",
"axzznB9ggPCrgBBCmnbgabCB6X$wr:XXX$rg2=aggVSFSVg68%<gxJxSmcgxcBJmuu6<8w;X@@XXX  X    ....=fDz<@<eq=@=1i-37%<1+     XX XXX@X@XXX  XXX;rt2=   .X@X@ X$X Xpg==@XX  XX=$X$868= X@=X<aSggw2;uJugbxVFCL82<p;p9@X;@;r=2X-# <iByffbVBBbie=2;@  XX@:89gSSgbp2$=;22;8gg=X;8",
"%<28xBugnKngnCBCVmxuwua8%X;2%@XXX6gg6;;8gnngtgnVVg6;;ggBgmnxgcnrXX@rVFxu;=@XXXXX.  .. .@1mLM7-wlf<-@iZu--.@=o..   XX  XXX$2;=XX XXX@=2;=X6=  X == XX  ul@XX  XX@rg6=X;%XXX%6r6tgBBbg2;wnr8r9rccu<grxxr;%=t8==6l%=-.=#1.#:ibde3$XXX=XX XX@XX=8xFLSbgrrrw26gg;;;;$",
"==28hltrccxkgratgar;@XX @X$XX$;%<:w2;rw8@$;wgxVcbng8X$%rrrgt38rxp22gBFSbcu;@XXXX.   .  @-ti6--16== ..u# @. ..@.  XX      <ar;@X@XX@@XXXX=gu=@X$<:o   X68XX  XXX=SFg6$%:6@X=8gau6gBCg==wgwrr6gBp6gVbgn8w:e6= @dCwy-..@@.1eai<$@ XXX@XX@=XXX@;6gBLKGFSCCcpup2X;;$=",
"::rtatgtCngt% @XXXX    XX @@$6rt6X@XXuVg<;rxBga8rw26:;<63XX$;3rngggggVSgxp2@XXXX .    . o%@ .@... #.. . @#@ .. .X    XXXX2ga6;o@X@@XX   Xqgr= 2r=$X   =@ XX XX@=gcr88wgB%XX2uu2=@px9$@$@;gg2cC9tggx2:2ggd=X@<ddiee-.-ezae1# XoX$822;;66$:82$<gBVPKGVVCCbr2;=;XX;",
"8:8662nlgg;XXXX X   XX X@@;;rnng:;XX@8gww6wgt%%XX;;:9gVx%93ugxSccggg8gBgr82$XXX=#<-..=-....O#. #6@  @ @@ -@ .  .X   XX@$@2au82$X$$@XXXXX@ $;=$tw*$X XX@   XXXX@:28;8tgnV8@=228 X;68$XXXX=%;;tg8p8;=XX6$u$X$$@2@77fieyzCB7%oo$XX;u2=2ucg26g9:uncgbSKSgpgu$;$=X;2;",
"ww;822gw=X XXXX  X  XXX$@:8gbnp:@@X@$@rggr2@XXX$XXo 6ggntgBFFFBbCFc6;8rr2$$$X$<%-d7*Xa2X=;228=X=e1@.. #<6. .. . . .. *7w7:11-=.#;=@..oo@#.   .661 = X $X XX  @;==22;agKc;XX32;%:g8:@XX%$XXXXX@$XX=;X X@   $X$@=@2axgrrgnxr;$=@=r8%;r89r;$2u9wrrggBFx6==@@;@%o713",
"t8aba<@X    X@9u8r6=@@XX:rggu8%X@=%@@$rg82XXX8XXX X X$@6tpcFKFVnFBp= XXX$X@%=2:=6dw@ 2222gcbbu6ri6:.@=-.1+ @@  o   @@-tzf<=><<-63;=@=33# o@.  16< @XX @o @ =$6@;=r22lbKx@@%3;3388;$;2;;<@$X$@XXXXXX$XXX@:@XX@X@X22222622xgpwrurw69pxp;@ $;862tggluw8;XX@X$.@o31<",
"grnBa<   XXX@2cCJb8=@X=trtu8;XXXX;8;%;26r:XX6n92t82$  XX=;6ggtgBBg8@ X  XXX@=2568aa2X@=<2alap96r11e3.-=.#.  .. .  ..%1fDf-#<6w762o%<1697-3-#  .=3%oX X   XX=:t@8gx82nCKg@$2pgcg3$$%26$$:wr862$@@@XX%@  X@@X@XX=2X$@X$$@@$6pgknxttgkgu;$$X $$%gBcg;X@@XXXoo o%-=%",
"6<t2@= X    =;gbBg222=2t6%XX  X@X=2$2%X:x2:;xSgrJCkr268@  X=XX2at6=XXXXXXXXXX$2rudld<X X =<=XX@;#:zh@@.<16# .@o. #%#%=6fw<-<1ee1;2wi91whdf71#. .<3=X X    2=2rrlFB82CKFg@$8BVSg$X26:;$$%ggr6;@@X%$@XX  X  $XX ==X@$@XXX@X$rxcggrggr26286XX$%6cCl2$XX XX @   %oo.",
"  X   @X@X  @=tnnba226;@@   XXX X@@X82:gc82:gg62PKFCcnb8@XXX XX@=$XX   X XXXXXo=gmbd=X X XXX@XX@<1MM<#.1uw= ..Oo-eiq1=@#1=#%:we1%id611<9yu11=#  :ra=   X  cu6tbCFb68CBgr$$tFVx9=283@X$@X:6%XXXXXXXX  XXXX@=X@==@X@XX%$XX@@6gp96266<$:2w=X@=2ala6X$$XXX@ o . #   ",
" X XX @@== @==8bJVt=$=@   @$X XX@XXXt88nr;$<2;X$blCFBxg222;X XXX@@@XXXX X XXo@$@tBl2 $ XXXXX$%$X-1fd-#@=6#  @.#7dbbi61-#=#.%11<=#6:.-%.o#:=-&...:gFt+ XX =BB6ubBgp;2r2;;66gFJBggpur2@@@XX@%<29t8=@$$XXXX%8r%@@@X  X@:;XXXXX$%;%$;;66rwp: @;txu;XXXXX XX . . . . ",
"X   X X$<2 @X@=rt6@X$XXX  XX XX=XXXX2;rt;$@26$X@2=rt82@@===XXX@$XXXXXX  XX@=@=::8g8@=;XXX XX$<:$@-7<#.#@#  @@@6iuiu7116>#1--6>#.=##=-=%---<11=-@=aFb;X XX@tl;wuur2@XX  @wggFJFnnxgll823<X@8cccVxtpt8=XXX9nnuXXXXXXX@;%@@$@XXX@;8rwugnpa9@@6nn6=XXXXXX         ..",
"       =lgXX @X2;;$XX@XXX XX=;==%@@XX<lw$$;2u@$X=X=XX=@XXXXXX@XXX@@@@XXXXX26$@==dr= 82X@ @;;2tr<<-%@=.# .     -1>-17376-<fu<-##=%#67#-736--=<%<.X6xB22@XX @2X;;<;=XXXXX@@gnVnxrgp8glurr;XXwVBxnglnct=@$=gJFJraru;@XX@@XXX@=$$X8VbgggJu22$X8Fl@XXXX@X X   .    . ",
"       +au@2toXX@->#@o.  X .#:w6=@X  =28;$<9x$X$ XXXX2;%XXXXXX$X%XXX@$X@  =@@@ =g8$@:%XX@rgp9cp6%#%@#@@ . .@@##73#<-#1%6i7i=o##@@7fw-1ey73o#-1##XX2c82<a;=XXX@X@X=XX@= $@$pCxgggu6gw<2;;;$=gCxgttt9p8@$9cgugJVSFguX$@@;$XX;X$rrluBmnFg%$$wpr2X @XXXXX XX    O  .",
"X        :=ag$   --@@-<*@$oo.#=. XXXXXX %$r;;XX$X$X;@8txgu6rr;XXXX$=6gt6r2=@X XX<p9$:r2X 2p8pr66--izy#  O##17dy<#.-:=# -7:1#@6-=%>17<167<1==-=@@XXX2g92nx: X  XX@XX@XXXXX$2xSbgCBlbu$X;pl8$<ggt299gg$$rCVg;gVxgSVg$$X=<XX;gugp62wbSFSrX$8cp@X$@X XooXXXX.@...   ",
"@@ XXX   X;dt=XX.=-@.--+*<-#..=o@X XXXXX@r;;8X:;@@X@X;uBnlpxBxp2@XX@tCBgnc8r2X= $ur$6gp%@:cut2rgw-wli-# #1<11f7-w1<-#.<l:#-37l6%..-1-@.@61ww<@.@X   2@=gd$ XXX$XX=2;X2gu=$;gBlgBmxg2;p8;82$=8pr69:kp;rcCxgxcS;$9B8X<X@XX<gnxxxggrxVBg<;wnc6  @@XXXXooXX@ @-=.O..",
"X$$X X  @ @==@XX.@##@...=:==..-%@   X=8ggg8@2$Xgcau682gBxlgxFFng8;$$rggtgbr82 X $;;;rxkg@=bJt8r9>=<1:o#-<@.=#f..61--<#eVi:#%-7=#%%#@##@#w7ffw...XX@X@X@;:X@$  X  ;lgtgCl9@@ucbBVVncggp<;;<2$@:6pbrg88kFBnBSxSgg8nrrnuu;2=ulgguu8rgBg66glbt=XXX @XXXXX X$#=61#=:=",
"$<2;X  XX  Xo=% .@-117wi1-@==.#.@X XXX2tnxB6@$:gSVmg2%6ggggnFng6@=runBbggnr==@XXXX =rggx= 2l<2$X #%-=  - @#9-w-<%==7e1lSi7- Xo%;=#.@<1<<liBVf1-@ @  $2=;=<;@X  XX=rgxuutt$X2gbBnVSSbg82w2<;XX@@2<rg6:6ggnSmVxJJxbnCJBB6<<guglpgwrxFxrgbg8<@@@X  X  XX X$<-=<7ii7",
"<8w2@XXX  XXX%=+ @=-6izBd1 @=-<#XXXX  X$8rg9=X<gBUPB;@@6<<gCB8=@X9SBFVVbpl6 X=   X  ;6::@XXX@@ @@.  #  -.llVi1zz%.@#<=il9it@ X%=--&<w71iMfzMa7<# XXXX=2;<2=@@X @XX=;6;=;<2XX66rnSFVgglxlgp2@XXXXX<<2ggp8xxmJbnSnBBBnnx<;wrw8gglgnCFlrgg3@@@@X     XX$X X-@.#3uu7",
"=;<=X X@      +@ .  @-7wa7@.@-76     XX@$$p;X$XVmJKBw;$<@@wBuXXX=9VbBnnxta8@@<=X $X X@@=XX@X=XXr<=.. #7ibKDCmfCby17><<fihza1:==@eteww17bt317-##@$@:===;=:=XX@==@ X@=$@XXX;@X$@8KPSmnllBSJVu;@XXX X$%=;2pxgcbJBKSKBCBbp8rggggBxlgKFFl888;@X@$X XX X@;=X.+--##%%+@",
"$ooXXX==+     $-1# .. .#-<&. .<-:$   XXXXgKb$$ggSnSxSgg6<;gn8$8gguggg82;$==X =8:@=@XX@2g2XXX X%gl7*--bM7DmIBSzbBl7e-=1bfzhtbVc82#eiddw11-# . #=1X==Xg;X=@XXX=gBx8$ @ X X$XXXXXrFFngrpBGlrp2;$XXX$XXX $X;9nVxBbBVFCLBg8ggguggSmbxFFJFg2$X===@X@@X@=22:oo#=*#@-#  ",
"&@++= O&O OOO&O+&O.O.O O @O #O >9<@  X  =gcx2 ;CFBJBKctr<;gn8<ggZf=## . . .+ #6e6#== w6gB=XX@@X8=2@==uJgbcFJVlCFFu2==;gnattgBkr822282$XXXXXX@<22==$===$=@XXX==226%$XXX$@XX@XX<rnbkgpkJFx8$;;=ul8@ @ X%2@:gBVVSSnCSLg8gt8ggrgVVnkgugg2$X@==@  XXX@==2pg2;$$=X=%%%",
"@ *+>>OO=<>>O  +.  O@+.  O<1@OO#zd: XXX 2r8@2:86axUFgx22:8ng<;=3<=  .        .1ll<=@X;;aBw6gu=@@XXX@XxVFrCnBCBCFF8@=2==6628r6;:;;%=:;@XXX$$X@:rg2@XX$XX$XX$$:XX@626%XX2%tgbw$$=6t2<8xJJVg26r8glau;=;6rnBBJSbbgbnVBx868wgnkgnCCBcxxg6;<;@:$XX   @X 88gB6$$$@XXX$%",
"OO&&OOO&4jsjy4OO O@O@wy@O6uy1@O1gc<.  @X=urur8==rlnPwg22<gg<X@XX=...  @ @.o1dfuuz<@@;@o2ur=;2X XXXXX 2gbBctCr@2w== $;X 6Bgxxr89;XXX@@XXX8:@X$=%$$X=<XX@ XXX@<XXXX%;6xxr<aFPk26tgcxgugVFCnBnutnFCcp;rggcbxVxgrrggCng9xggkJVFScnVCJb8;<<;= XXXXX  @;X<669@X$X@ XXX",
"O&>jj&4&ivjjvNy4OO@ OuMw.ylvj1#yBC9@XXX Xbu6X2X=@6VJ;g@pwx2XX @X @  @.    @=<izz<ir:@XX$=X==X=XXXXXX@ ;2BFugg9<%:2X X;8nnnCBr;;%XXXX@XX=;%$$$$:662;X XX XXXX$;$X= @2tgg2:rg86tnCGJSnbxbBPFblnCd86u9gkbbcrcu6;ww68utpVnVSugVg%$6gJFBxgw<2XXX   X@XX@=$$:;XXXX X  ",
"  >fuO#-yvmvKKv0>  O >yy @uMd6ymnCg=XoX =;:=m: $2pug82;2gaX X @ %+@. .@.. -wefi=%gg;X82@=;2687+<@X oXX X$2822$8gnVg2 o2gcgggg8=XX XXXXX@%$@@@$;98u= == XX  =$6w<22==ua92%%$$2ubCSmBFJncCbxp8udtdaxgggngrrbua6guw669gBnx9;=;@$$X;8xCcr=XXX  XX X=:;:;XX;:@@X@ @==",
"u+4=%&O7BDZqy44&>O.@ O##&O@uMy&#lbl2+X =X X m3% @2%V:u@F6XXXXX @.  =-uzf:  -=<1.X%=86cgglt6Clradb<=  X XXX<%;uBpar=$$;$ $==;2=X=X      X@$=;:=;;2===    X =r$$=$c92$;gB9XXXXX@6tBKFncxxbcbp2ed6=tgxggBcCxk:=X$;3p:;9gBCBng;;8:XX@@==XX@@@o $tmcrqp=@ Xw296;gccr ",
"N>*=u0OO.%>.%O=&#%>. OO  . O= @jFCgw8;X X $lc7+%$=;kcX%:@ XXX@ = #.@ii-yi# =fBMf86gnt8=g82Xxbw6eFtg%@ XXX ;cFkxVVVa==$XX;@X$2tr6*@ XXXXX=rxg8$%2CuutX =@X8gCnBnV;@@ XX;$<922==;@gSm8:89w6$XX:-=ug6$;xSng@XX = XX@:tkgVcCGKFSVbnnBr66= XXXXX=uSBr=@626p29cCBl8rBn",
"sq>jB>#O&  O.OO.O O O .O O@>OO.4xCllu=$@@X@g=::-X;892X8;XXX@;@ @eo+. @#@ + @izlzgrnlgkaxr=@gll9urgBb;X@XX $VbxPSnPxX@X XX XX 2t2$X    XXX<ugrrgblg:X=X  @nCVSPFSn@X;2rxp89;;rgtXX2:=:2296;=:lCBCBngrgcFBVlpX:X=X @XX6FcFBFFJJLF9X$ug2XX  =aCVu<:X=8cnu;62cJCgtCb",
"uMd>sv6wi>%.O# ..O.&>16> 1lfd1O ;hJ3@=. #w.@1wf<;;p=X2SXXX    o:<@.o.    @@1w-6llgbbfbflVf--<6w#%1lf=...@ .7:hMGla8;=XXX @  X@:;=    @  @;26ablr<9=   XlmB<nBKVmrr:@668g6w=X8u5;<<8tphhayzSf<#@=VBBxn2:2bJFFFCBg@X XX=aSCmBcCF8X@XX@XX@=XX<62=X X@X$88gw89=@;2bB",
"7qu7&O=w= >>7O&O &66<4>.+@.Oju@O;ra< @ .z1D.@=79;2gt@=F    X+X. +...    .  iViybnCmmbbybzJ1 -#f-o>i1Z@ . X+ -fDKBCbr=XXX   XXX$=@ $@   XX=2==@XXX$ @=X:SGmJLFSxJcpttg9<;@@  ==;;;r98hVnVVi3#..  XX$X<XX$%gFFlagcgr@= $=FCFFFxd;:XXXXXXX 2<2=    82@X 2@$XXX =; r",
"O O@O O .+>6-><&0001%O#O +.Ou0.$ dbi<@  bDbwziid=$Xg $<XXX        .  ..  $.-ufq$ibBGKJfzKbK7 #. -f-@7.@.X3@= %-.2$X XX  XXXX%8gg@8lr@@X  X$@@XXXXXX  @lBGxLFnnJ9KCgg@;@X:@X  @2ru:tnzuw3#.@.   . XX @X X$;$;pcCVCgu9l =X8VVBr2X   X  X@@     @2ggt26= XX<X =  X@",
"O&O    > =O4-yq>==@.O=>.+OO O@@+@%hPS-@.zVZe=hD>@;=X6uX   XX         #.  .  %--$#:dhzCSVzDzb<.@-baw.fLi6@J 7. @%XX XX  @=289gVCu22xVw  .  XXXXXXX@  =XaBmVVLVJxJFBBp@X::   XX=6t6gp<o..o  @. .+ XX  X  XXXXXXX@=PCc68lX@@u82XX@ @X   XX@@ X@=XX8FKBBKBc=X==2$XXX",
" . .<@ =<<  %.. +>& @yi1=@>&O  O.dBCm-  eB11lDze@6=$ln X  X X    .   .  .   . $7t@o#zVViDbmMzD<@iBu%wiif<19. #   X@  XXX@=8lVFn8;;lKx=   X@X    X X@8dF6xSmGLxSLBVxr=288=$  XX:uid7+.   @@.  .. X  X@X@= X X$XX :2Jp8cu@X@  X X  XXXXX @=X=;6;=rcFFFJYgr5tKnr< $",
".##*-7dbzl6#%#@#@&#OO&>-O=4ijy O wbV1 .=<.az<u##=X;@N@$ X        .  .  @  .    .  @+ienIf7DSzbe. #=-uDCdCc6 = .$    @$=%;aCn;X%==6dxr2;X XXX@==@  =rVabFb2LkSJJVFb6c282Vc8X   6bS< .  ..   @. ..        X@     @@6686:gl X X@    oXXXXX2X=22<;=6BVFPFnBPU66@ X: ",
".  .-iMi-<:-%y71&@>1-OO.OO >vSw+ ffw==   66 7=1 @%$2$.$   XXX  @$O @-#.-=  +.. . #o @.6MZdzzBu# .   6dL>u@ @.   XX@=X X<26gc8@XX :aFn2@ X XX==X = X=llgu$6wgnBwJ8gFggkJVg= o@6di #. .  .$   .O%.XX@ XX@X XXXX X$XX8r8@ XX@X  XXX=gBBl8X X2bngrru8%XX@;b2=X X@=-X",
"@#+@  7li.1-17i6<66# OO .O.@<Nd  <e6-...71-#..#=X$$u $ @oXXX X6g<. #e6=17@o  . .   . -<#  zb-  . ..@ = #<    .#  XXX@$=;=XwFg@@;gVFSg;=@  X==  X @X 2@ =2nBgVx8gg6SSJwnVl@ Xodx..  + ..       # XX= XX=XX@XXXX@=rFF=82<X$  $X= =uBl:XXXXX2nVargJV@X;XlFtr $=<Fm6",
"e<uta $@22$XX%2ta@ o@       Oej- .67w- .6..@  <@=X@:*  .+ . . .  O.@=%.iBe. .  . @  .  ..  6@@  @ .   > @ O& @.%#yKB= =32==ub9%unFFFJg;XXXXX@X == XXX@X@;=g;xB<9Fxgnacg6=X$X<g@@.. .@  . @..@..%X;gr862=22==X= um X@XX: <:$$2q:X   XX  XXuFbbuuV2@X2gx<@X9<6X=Xr",
"-<dcg2qg$;;=;%X oXo. .#.>.O@  . .+*#1@.=#-#-=. .@@$@..    .  .$  .#<#%<7zw@         +#   ... ..  O OO  O  >@CuvMRLPGu@ X26;@;2rBSKFbBk2XX@XXX=@@@X=XX%=  =@62;c8VFg<Crgt XXX62    . ....#.#%=%=-@@@wu=@X:@  X tC: @X  $:xd6=@XXX XXXX=@X;6Cb3dm8;gFgbFr<:nSVgBgu",
":<wmBnu6:<;$X XX  oo  . O OO     ..-7@.@di#@.  %o@X .#.         #- @1w7#=.    ..  ..   .   .#  .O $  O$ O1v1N=OiMCSbaw2$8gt=@2ukgr@Xwxp6X X2t2282X$X X@XX @=6Sc$gx8g<; XX@ X8XX$.#.  .@..1BKf11-2; =;X@$X  X@=xc XX  X =g2  @@== @=@2t8$X rbgnx2:p8xJbVFFBnB68=<",
"3ixSSUbtt6<$ XXX@  @@.   O.  OO  .#el# .ee<6 .  oX  #. ... .   #.@@wf7@   .  #=..  .+   @:# .=%=O .O O  O C>Zy&qGb7:;$  X@=@@$=%tr2@%;%$XX=2686<6=XXXXXX@ $9JJ6%tgg<<X @   :8XX   #%#-ifefVSze7:$==$@= X  @ @mu=X$X  $ XX  :2;2t :r8;266;XX8uw<gFCucVVbJVSbg;:%X",
"cbBBnFBnt;@XX==@ @o .@@@&OOO.OO@ .+1e.   izb-@.#$.  #   .. @.$&w- 6zu@ ...  -zMi@-+  .@1ecueumMCwO4=O>u>-4v1vP6jgct<@  =$  @%===2akt9tr2;;$XX%2:22@X==XX =@rIg;%8pg2X@XX@XX:  XXo6zbt331zf7%<77y6rut62@6XXX ;H- X X@ X XX o22$$6@ @<28gnrrangrwmnJnnVnBSGIg;$X<:",
"g2;=;2$=a62=X X$-161*.#w6q1.     .+ =.  qMuuji@. .. .. . @. @=-7-1i<@. .  .%77=.lSz# @6zMSzBBDMJjDD1SbKb>lb.MiybnSt==$$ =X X@=<3wgncccg8;$X$@@;8;2X @ X@ =2;Cnr=tCcnx$XX @8rXXX -fDSf7-@.-=#-:1wucgCUB2 XX Xpt .X XX  X $   @@$=: <mFbgurrxFFBlmVPVkk=ggFx;<u;tG",
"<X@@XX @ X;88;=8eeee6#-iMSMw$@@ .o%#1<@.-ftize.#. .  .@  @. =#o# dl.  O.#*@@% @ulle$.##@@3-@=iff>jbbDbvyjM7Oq>O1FJCKV6:=X XX@;1w<rlng2;;X%%%;;;:96;=X XX X=8Ccr6gg8CgX<X :3:  X@thfe617911ezbfil8klcb8=X  X<lo .$ X          @7i8=6cbcVJFg6rmSBDCCS868966rrgmr$2",
"X XX @XXXX=rg6@@-:#O-<-<@.OO O.@o .#7- . =<iVf1#=o    + #.@#7= .16= . -. <<O$.#w1$ .     .  .. .>BZjmvKyd- O@#O<cbgbl2:XX     .%268:X@$XXXX6p86xulbg;=6 XXX@cC@X;g;X8XXX=w2@* X @#+#116ee1eMlwwig%@2c6 @ X=<pX . X@ X  X XX .<9wrXX8gcnbl2==ibbu%8:r;98$2:g8guX$",
"X @ XXX  @X X@XX. .o.. ..OO.O  O o* -.+@..<Mi36@#*  .. .1 #37#=.w1  .=1q<@ ....o. ..    .  ..   4MMeSvD<@ OO.O@O=22$@. . .o-<@ @#41>OO#O@@+<jd1>8=tg6<@X=XX tF@==ra<$X@=aaw2@XX@@o.-7azDShw3;;gm2XX=2%@XX =F@     o *       .$=-;2. 1ft<.=<-=<<-@=2rbFnr$@X@$@XX",
"  @X   X    X  @ .@#@..o#OOO.OOO. -:7@@ =<7uibi= @.    @=<31..#@w.=..7ubw*  ....   .  . .  . . .Ojmiiyv>OO. @O. X$=$O .@#@wliww1.#%4ui7&$<*>jBi>X@66<===XXX=bS; @8n<X@X6l8ua2 @$ =enGGBnetfiugBSp$$%2%XXX$:g.   @X   .. .     ..Xo o66--<--7ii7-=2raCngr;$XXXX@@",
"@X    XXX$@ XX X @%%#@@#O*#OO.#...111o#...@@<d-        6ldei7>.#@    #ui=.  ..     @..@..        O=6@ . OO. .O#O  oo.##@-6ifMJB1==%yMSvw2uq,wvjw$2wwt$XX=  =u=X=6pa:XX;8=<<X@X@=2dmCJKBlw3hnnagBc6;$;$XXX82= X  .   o=+ .  ...  Xo  @$1l7--uMMdeugFnu8at;@XX  XX",
" X  @X@ X@$@@@@$#---%==%O1w-OO@O.o:-- o@=##-1e-.@  + .@lbZDVll1  + #$#w1  ....    #--##@.#o     .O . O  &O<<O  O    @67#1fu1il7#00&O#0iypu0*&>6it8rgV6;XX ;uaXX=@@  X 28rxtXX@@@<gbgzzf773hGV3=w9;=X@%@X2w;  XX .   7-@.   ...   %@   @1<@#6dfflCVp@8t6=XXXXXXX ",
"  @ XX;$$X@=;29p:<<=%-=&=yi1OO#O.#=:7@ #1= #+-- .  . .#ft7zf1==@  . #-. +.  ..    =76#. @o..X   OOO .+O.i<vZy7..o...@7w-ee--7<.#&76=>wjuj6@.O @qlugFUgwXXXXXXXX@;XX@XXX=;=@$XX@=ug9;3au63iVhr;%<%$$@X@X@g:XXX   $ #17@.....    . @#        .%:7wcar$X2a2XX   XX@",
"XX= ;62==;2;2gcg--##@@@.-11#O@%@ w7-<#.1z7 =oO$  .. . @--6l13lf##1##6-. ..@. .@-#..*@   . ..oX XO O =OOOjqbBsv0&.. ..@-<7@.:11-@.&OO=ivj6#OOO.@&rwgbbr2 ;XXX@=X@22 XX%6%;X @XXX26968hGChhbVw6r2;;XX$X$:rtXX   X   7b#O..  $#+.. .     o+      .XX$X X X=XXXXX XX",
";@;6rg= @26;=ua2#++.   .@@O O%%&#ue@..%wVu#-%o + $  # # +.1eSD7 >w#we.@   #%o+1a7+     . @::@ $2@&<&&6wOMzjvbZzw@.  .  #. -=  $.O&#>wuy<  O  OO @$$  XX<6XX@2XX=Bm X@2x<=;XXX;6gCVxgbBmbbbChgr@XXXX%;9ug@ X  @@  7dd   . .=-=+. .  .    ....      XX  X  XXXXXXX",
"g626=a @@ $22=@X..o@.  .O.OO&>&.u<+#@ .7ue<o#- ...  6 -@.@@1zb#@7<1du$ @+..@#:iV7# #-=+.@7fd:o6b6#>7#<s6bMwfzi0>==. ##     ..  =%=>wu6>@O.OO O.  XX XX r2XXXwX@=Sg  @tct=X$XX=gxbVVBnhhbmVGhr=X$X%286g6$X XXX  X-Vz@   #<-#.      .   . .      X XX      X   =22",
"c6:$;$22%@2uu@ @=r6X XXXXXo22@X$u1@....#=--.@& @@..%a @=ru826cX$66gg2;$$XX@; gSg=@$@t2;$;ug6;=%gr=$X  <2Bua$=X=uf-@.#<#....  .-1->=444>&>>OOOOOO. .>1 @%d##.O =7nXXX;k62X XX@;rgxVKSgtgggVxw%;XX@8cb=    .... #1abt  . -w<.o.o +  .=-@.... . .    o  X @   @X=lp",
"9%%@X@6rp2ur:;= =6rr6=  XX6u2@=$<&@.    @$#@@. @ %:w6=X@VFb2:t@X$6r%X6p6@@<9@aa=8$%%6<2;;%X;92@X$Xrgt2XXww8XXX:cme@-7z7- . ..#..>&&&OO&>4>OO&&O&#.%16...<- .ooX7c XXaa2;XXXX6gnBSxgggggu8gr<X@X;amcr$    .. ..7lmu*  #.@%.  . . @<eiw1# .. .....  o XXX @@<@;bng",
"$X@@XX<rbxg22a22;%2au;XXX=w8@   .@@..  ....@. #==<w82XX@ncburX X2;$X@rkpXX<8$t8:u2%=8gr;X$<ap==$$@gbcgX@ @X X;$6bi.1iDmb1#. .#..O&-=+ OOOOO>0>OO1-=-<....1.#XX:tkXX$g2@XX=X=gFVBnr<6rr98;r82;$;2gg8X     .o  #ubm%   ...@   # . 7zmfei1....@-%%=:2:%=8u=rak38BBx",
"@@=66<wugg2@8xtu2@:r6XXX;t8@@  X.@#....... . #77a6w2:  @6=tcgX @6%X;2;62XXwr@<XX;6%2kBw:X=8gr=;$XX;228 X XX $r:X#@.1fbDDf7..@...OOOOOOO .O>yfw>=1-#=# . =@@.@;aauoXr8= XXXX6VFnbbu66wrugrxlr<6rrt@X   @   .. +6wy..#   #. .=<...6ii711-.%671dfiiBmddgcFtCJlxcpg6",
"$$$rgggg8;X2albu:X;8%XXX8u; @=oo .o.   . @...-iydt26 $  X =66@@X@26r< o XX62XX  X=;rgp@@o@62==@ XXXX = XX @ X8u=#==eiwiff7---#.@OO   OO O#&>7111@.@##@..a@X 8nVa;X=g=XXXXX%uFFVBbprgggggxVx8;6xb8XXXX $ . .   @.% ..   @@#<e1. +#..@#. .%7ywbbzzbbabnSFaBJgVB22@",
"22$rguw8::%rVcbe=X=;@$;;8=X o22X ....    @...<wwglr; X      XXX X28w<XX.@ XX X =@X<nxgw8=X;X @XX XXX XXX  X X8g8=-1f1%=7w<%-11<6-&+#+  O#O.OOOO-. .@.#.=e: ouFgu@XrtX X X=6gkBBxt:8xCg3;rr6=$:xB;;@X@@@$.    .@@-.  .11<affd=  #@.   ....#1iMfuu82;6rug26trgt;<8",
"ug8gg6;%$6w8Bxh1X XX@:862XX@#<6+...+.  ..@@..%>7gx8 X @ @XXX@  XX@==$X  XXXXXX  %X3cgnVB:X  X===@ XXXXXX2=X@:ua2 #fCiuwu<#.#=<676<=#+O&->&O#=&O>-..#@=#7o-$=5t<;@;a=  @XX=tg9rg8629xxg<XXXXX@%guX=XX@$o%..  .@-w7$ @1lzzVmf6@@*-@>-##=@ o@-eiw13<:$XX@oX$XXX;88r",
"9gtxg;$$;2x8uzm=XXX@;66;==X@=*@+o...  .=@.# ...w8uXXXXX X @ X  X $2@Xo XXXXX@ X$X;8:=6ur=X 22@6utX22tu62dg==:r;=..wfyu7--# ..@##>qyqyju1-#O>1=O&7%#--1#1#:8w6=2X@2t X;22=Xgn6;6;wgg8;;;@X$@X@%w$=X@6@o  .@..@#6l1  #<fmCau6.=7e1=%7lz6#=:#.%.%%-$::oX@XXXXXX@%;2",
";tg8;:;:w<d6fz7+XX>6<&@.@&..OO41+@@.  %-%i1 ..#@== $  X   = XX@=X XX X  XX:;%$X<<6=X @XXX ==222u8=<BVVl:BguX XX # %:.  *      @ #>yaMly>=Ouui641fe-77-1=e=V1 o=@X=X@=2gg98tn2;8xxur2;<$;p8X;<g6;;=X;;XX .@ #@#-z#    <16*@.@-161--:bGdwew-. o6w:@==XX$ XX@$XXX$:",
"@2e63wwdbe1e1w1#X@>4&@&&&=OO #yi- o-%..@-fe#  .=;$$XXX X* @ X@8r  @X X XX@r9@$8tn9XX XX@X@=@=;$X @6rapaXr:6 $ X    +. @   .@   @=&6ivlliuy06jMlubw7qe%z<Bwei@%$*X XX2gut82rc28gSp2rgllgblr;8pBw@X@X;2X   @..@ <7  @+ @.# #-=..=1-=#wbbznl1@@%==#XXXXXX XX@X  X@@",
"X=:=eBVzu1+u-17= *<<#OO.>1># .<1#o-%.@ .11$@@..@= = XXX@  ==X=bBrX@X@X   ;g6X@uxg=XXXX6gg2@XX@   X=@@X=   XXXX   .    .  X    @<&O>iZbMSMDu>uvffz-7<q7edLi-w %X%$XX@2tru:;6u;rnSxgBCVFbxnw$8rt@XX$XXX  @#  %f7w ..  <-   @---#$@.@#-inbmbu6--::*XXXXXXX XXX  XX ",
"XXXX1zht1617<#7*<*&+  .&@#>#OO@O#<fw<1#@6<1w7%..=@=X@XX@X<mdX=cCg6t$XXXX=gg;X;9g= X  X6rg2X    XXX   X X X X @  . . ...6ghr=-6weq=<qduvDKIf4017lM7e-<17DB%1 %:;o @<gu222X%;32xSVnBJSBSbggrwgr:XX ==X $@ . 7fM36 .  $bi. . #wzl7$##@ %wabi1==<=o @@ XX@82X    X X",
"   .#@o:1we#%.7yu=O.O.@41&.OO.##=6nMzz1.1qmBDfw%X;@@XXXXX;JgX=2rxgc@X;:@:92=682;X @XX =X===X X   X   X  XXXXX=;286u<=o@7bCbttuuuf6>=<7bPLDf-1=fbSff=% BS6oXi2n$XX@8nn8;:@$;8ggugxxVFSVxgwgxr$$@@%X=@ =: .-bb6  @ ..-l6=dw77fmbw=#.X  @;gf-$uxr=@=22:$$:@X  XX  X",
". ..o  ##--.#-7Mu@ O .@4y-OOOOO&@>edmKf%.1mBKBi#X2X$XXX@$;Vr;a6wCg9X$;;==X%88;%XX @=X @X=@@  X    X X  @$;2au88tmGJlt*2$=8aaw;=<6-# @1zDLDb11<bBSSe#=1f6o 3Jb8= %@gxgrX;%:3gbw=<gxSJFFBgxnx<X$<82$=;@$<@q<e- .  .@@.=.-SBf7372;=@oXX@@=aBd9wr<XXX@=;:;=XXX XX  X",
"     #  .....#=uwOOO OO><%>>OOO@.#==wmme7dCCmBzflg6=@X@8::g;:p2tFg=XX $8rupt:XX XX@=@XX@2X  XXX@X X @X<dgbcPng8rBFFnbua%@;8r<X  ...  .-1MZZ7-1ufDD7#-z<o@@wGroXXX$xgu8XX$3lBg8<62glggBBuw82$XX$<=8662=$ 6=-  +O  . ....yh6  X%;27r3%XX8nJJh=X$$@t2$X@@X=@X  @===",
"@ ...  .@     @#>%iju6 O%<y7@  ...  .1fbzw>eebfDFa6 @X:b;2p=2w8BBb@X:62%xFg$=@@XX@X@282@===2rd6@:<2:@8raBFFFFgblFdmgxd8X@@== XX O @..  .1w7-#=.&if=##wze1.76 @$XX;w3;;$$$uFn:@:$26<$$28$$X$XX<68;xr==X=X. #$o @@..   #.=3@ .%;;%rZbr$XuFld2 =raar68<=@@u=@  =wr=",
"-  .. .. ..   ..O6vDDv6O.>jbeO O  @  X@<g<@2p8gJCr;XX @Cr6rX=9l::2XX;6<;gg629u;;$rtrgc6X@X2xgFg2bb26%86nnKBggBJn8gkpng@26@X@X XX X@$@X X $66=X X--= @X8mmX< @ <X@p9$6$$$;ggw@@@@@XXXXXXXX@ $@$669F<$XX  X@ @X @ r8gX=88r@@@=<%6$=gnp@2uug2@X2xgpxggg<<;;2@g2@2gr",
"-.O=#o.        .+@>ylj6  &iljs0.X  XX  @=@<amlVJB2=X@XXntxt @@;@@@@X%;%$82<9gg2$9cxcVa@@XXXugtt=FSru@8uVkgrt9268@2866<=2;  X@XX  X@@=:=XX @@X Xo.#o@  =xFr  XXX=6Cbr$@;6gr2$X@@@@XX@X  @ 2rxr<2898XXXX XXX= XXX@88g=2cFl226a22;;3tgw;8xg2@ 6xggggg96wr=8uggn2%;;",
"@.:71%#.     .     O><& . >jAMsw$ @X X  X$rcFVSltXX =X$bub6 $$$X@X;X@@$$;X=wxg2X$8gng$ = XXut==6bg=$%8%tX$;2= XXXXX%$X$X@@=X X@X  XX=8w= X@$X   oo #X  6bn@X+   pJr@@;9ck8$X@@@XXXXXX=$@2gnngg9<@ X@  @@=X= X2  =X;XXrV8@2lbg9:@2gb62gFbt6;gxr9r2r%%6rX2;xFr;X2$",
"7%=1=.. .   . .  OO   O O O<iMvi8rw=X@  XX<rcVB6==@ @ =t8;$@$axgr86@X$X:8X@$:266=@rg= @X2@ ;rc;g8=u<X$X@%:%X  XX$X@%XXXX@XX =rg9:X   =: X   XXXX @ .XX  <rX@X $@B9;XX:x6;$@ @@=XXXXX2ap8rlgr28%@ X @ @bcc@ @=g$=6 XX  2XX6Cncr;X%gmpxVVg6rxg2%$86888;;$@X;662g<r",
"l-    @# . . .    O OOO+OOO &qillnmdu2 XX  X2ad$X8= XX66u$$$$BFSnn8$=2 8g$$@$<rr$%pt@2nncg=X=t ;XbV@ @X@%@X@=;<;6@XX%;X@@%$%pFFbr;=X  @ XX  @@   .$X@ XX@@Xa XX$g%@$$2b8X@=X  XXXXX2pggcbu2<@@ XX@ . <nFF= =<FVbg@XXX X$;2pgtrX@3xggVn9ugr6XX2=$XX8r6;6X;2<@Xr8B",
"7# .  o+. .         OO@+&#.O..>ulFKFFl= X   @:r<=g$ X=w;Fp$X6Ccbxn;@2r rg$@$$$%$%gx9<uBSJFt;ax8X2BxB; @@69ggar2;8;2;68X;26==9nVBr=XX    =;=@X  =@ XX$  XX@xF7 X ag%$=$@2;@XXXX28gcnbkagBB6X=$=X  X@@$=;cg=;X=mKb2XX =@X9n6%9gw$$8VGIPx$%rt;@X@2=;$;@<6bk<$$<r@$<",
"..$@.@# .  ...         +@1<. @&#2lKFVBt@    X+ed6g=@X==@Cn;;xFbxug@X<6X28XX%$XXXX<;@6lnbnFV86<= 2Pk2=X26@:r2:2;;@2pr:%=6gt;@uFKJnt2==@@@;6:   =a:X X$@X  XBnB $X;6=;X@$X@XX;rlBFCJPFl8;;:$@6X @X  @$<$=x=X;XXga2XXX:t2=uPp;2g:;=pxlr<%@$$%@<62:XX$$$2;8:;<=;X@@X",
".  .1ff<@. ....     O    OO@&@OO ;cVlld2o     :t=6===2=6cJggVBBxaa=X<= =%$8Bg9X$X@@XX2cFFCK8X$ =u2;@l=X=$X@@;2=X@%;:$$2;22X =tgBcr@X=$X X$X XXX=XX o $=$@ <uFX XX2; X %@@%%tcPKCJBFIJt@X@X%c6 XXX X=u=:; X   c==$22xB2=8tr@=XX%pg2;$$$;$%X$XX$X@@XXXX$6%gX$X=$$;",
" @. =iC6e1 O @ .O        .@-yi6@X OyCSMq&OOO O @>>&j14><gnLZbASN2g  =@ ==X8BdX X@XXX $==$%;$@ X<=  F6=@ XXX= =X=XXX XX@XX$X  X<w$=::=$$%X@XX XX@ - XXX2xu@ :b=X XX@X@X=X$%8gcBUKx822;XXXX@9g:X@X2tkBCC=X@ X X<X@:kVJP:6xxgr;8X;r6;%@X$;;@XXXXXX@%@88;@68;g6r<$@X",
" =  -fJBCu-  # o O.     OOOO>ii> @&<lva<1O # = O>izv6-&>gFbHPjiZJbX@@2X2u2lC2 @ XXXXX@  ;=X@XX   @@;=XX;8= XXX;X@XXX@XXXX  @@ XXggnBnggg2X  X    X    $dS; X2u XXt$@XXX=8r2rbxp96$X@==X X%pg2X@X2cFPCc==X=X X 2BggJb992ubg2=;$tCpr;$82X@X@@X X=6Bppu2= r;<ll6uX@",
"wf-#.#1uPPf%-ye@O OO  O     +jDv4  O7vDSu%O+  O .ivy&#.=5H5wZBuZbl X2g 28 @2X8FFt=X Xrm6XX:X$ $XX2brX X:X%2g2@=@$@XX XXXX@   @= %uVVgpkF2XXX@  X  X.XX =B8X=8F= X$YgXXX2gkgr288@X$$XX XX$@86@@@$pCFJVmxBx=X=2BmVt8S6$X;tng$X@8bFl8;:;%@X;;$XX;2=2Sbna;@@282;X;@2",
"MPBa>  =6di%3SBfZz<     O  O >jSJ< OOsBv> O O O. <i7O@O.$,56jsyMCbXX6go6u2=8gbBVBgr2$=g22gnC6=X 2lFr266xB86%@tX@$$X@X=XX=@X=@ X =gJFg6;$=XXX@XXXX X  @ X@;XX=auXX=rrX@ =gPFg8=XXXXX XXXX$=g8@$@%;r5xSKJBbX@ <2Jg;;CXX  tVr;;8gBBSp62<wxxku6<=$6g2gBgg<$;=u@;=XXX",
"%1w<@   wB1<#-zBBMmi  @  ++.  >jZi@OOMly>%O@O@ O Osl-&.O1Z# 4Z7Zc; X@XX$XX=aBnBFnb86g2=X$6cFc6=X lCl=2rB@p298$2@X%<2@=$;t8;XX @@X@<2:$XXXX$26r;X  XX  XXX6= @2a@XX=glt$2CJn92=@2 X@@XXX%:wbrX@=88BFKzwgxB=  r*bi@gr%@<gxn<XXgBJnbg62pxnJFg82wu6$gxg6bJn<r2=@XX@X",
". .   # %de1 .-ljy11<  O +O @.@qMD<O.f7u6O. O+ +  6j>&.&w61O74My;X =;==@=$aJJBncBFa22@X %Xg8b=2X=X;Cr6%@@:t%:XX$w92<:6;=28rap2@X823w8$XX;828aFcu2  XX    ;=XX22=X =rCu 2cnnt;86X$X $tp2=29a2 X=82r22$ $$X X= X;XX$$XX2SKgX8xVr68$<8rr8$@pBKKSngw6r6cgrt6=X= X@ X",
"1#.  .. #iw-  @1dyvDj&O@ .  O  OiBq&O=6MLuM1-O  .  >>#O#OulO &DiX2= :wXX$$8lBCVxar2=X== @XXX=XXXXX tg; $$X;$X@$68gVg2@:rq66gg$@tg6$$%%:6ta2@uJFCa=:X  XX @6= =2F X;F8%@XwVC8<8;=X=;6glur=8tr2;=@:=@$X   X @=@ B =%X@$ xFxCLrXX$@;<lVg82$$$uFBr8gr2ww8g;=@;  $XX;",
".  @   .%qVBVz .OO+1dj6 O  O O  >vBu Oivj<Ml@@  .O O6O#&O>6> .O#X=%X;gX@XtlnFn6XX  =  Xu2:@X:;X @X;=r@@X$@Xg@=X $rBcg:=@2bg;XX@8PUJg=$<922X xFg===b8o@X X = X ;B8XX=;6 X@<bbr8622ur6ug8;@rgg2XXXX  XX X @   =:d$@=  X%XuIg=XX@XXXX@$626pgwwxLJg$X@;$2;8p=@XXXX%="
};
